laRVa_DCv/tb.vcd
$date
	Sun Nov 23 21:09:32 2025
$end
$version
	Icarus Verilog
$end
$timescale
	1s
$end
$scope module tb $end
$var reg 1 ! clk $end
$var reg 1 " resetb $end
$var reg 1 # rxd $end
$scope module sys1 $end
$var wire 1 $ cclk $end
$var wire 1 ! clk $end
$var wire 1 % irq $end
$var wire 1 & irqcs $end
$var wire 30 ' ivector [31:2] $end
$var wire 1 ( outcs $end
$var wire 1 ) reset $end
$var wire 1 # rxd $end
$var wire 1 * rxd_b0 $end
$var wire 1 + uartb0cs $end
$var wire 1 , uartcs $end
$var wire 1 - urd $end
$var wire 1 . urd_b0 $end
$var wire 1 / uwrbaud $end
$var wire 1 0 uwrbaud_b0 $end
$var wire 1 1 uwrtx $end
$var wire 1 2 uwrtx_b0 $end
$var wire 4 3 wrlanes [3:0] $end
$var wire 8 4 uartb0_do [7:0] $end
$var wire 8 5 uart_do [7:0] $end
$var wire 1 6 txd_b0 $end
$var wire 1 7 txd $end
$var wire 1 8 trap $end
$var wire 1 9 thre_b0 $end
$var wire 1 : thre $end
$var wire 1 ; tend_b0 $end
$var wire 1 < tend $end
$var wire 32 = salida [31:0] $end
$var wire 11 > ra [10:0] $end
$var wire 1 ? ove_b0 $end
$var wire 1 @ ove $end
$var wire 4 A mwe [3:0] $end
$var wire 32 B mdo [31:0] $end
$var wire 5 C irqpen [4:0] $end
$var wire 1 D iramcs $end
$var wire 1 E iocs $end
$var wire 1 F fe_b0 $end
$var wire 1 G fe $end
$var wire 1 H dv_b0 $end
$var wire 1 I dv $end
$var wire 32 J cdo [31:0] $end
$var wire 32 K ca [31:0] $end
$var reg 32 L cdi [31:0] $end
$var reg 32 M iodo [31:0] $end
$var reg 5 N irqen [4:0] $end
$var reg 8 O outreg [7:0] $end
$var reg 32 P tcount [31:0] $end
$var reg 3 Q vecn [2:0] $end
$scope module cpu $end
$var wire 1 R LOAD_sign $end
$var wire 30 S PC [31:2] $end
$var wire 30 T PC0 [31:2] $end
$var wire 30 U PC1 [31:2] $end
$var wire 30 V PCimm [31:2] $end
$var wire 32 W aluIn2 [31:0] $end
$var wire 32 X aluOut [31:0] $end
$var wire 1 $ clk $end
$var wire 1 Y csrrw_mepc $end
$var wire 1 Z ebreak $end
$var wire 1 [ ecall $end
$var wire 1 \ ireti $end
$var wire 1 % irq $end
$var wire 1 ] irqstart $end
$var wire 1 ^ issub $end
$var wire 30 _ ivector [31:2] $end
$var wire 1 ` jump $end
$var wire 1 a left_sh $end
$var wire 1 b mret $end
$var wire 1 c opauipc $end
$var wire 1 d opbranch $end
$var wire 1 e opimm $end
$var wire 1 f opjal $end
$var wire 1 g opjalr $end
$var wire 1 h opload $end
$var wire 1 i oplui $end
$var wire 1 j opreg $end
$var wire 1 k opstore $end
$var wire 1 l opsystem $end
$var wire 32 m rdata [31:0] $end
$var wire 32 n regsD [31:0] $end
$var wire 1 o regswr $end
$var wire 1 ) reset $end
$var wire 1 p signed_sh $end
$var wire 1 8 trap $end
$var wire 4 q wstrb [3:0] $end
$var wire 32 r wdata [31:0] $end
$var wire 32 s sh_t5 [31:0] $end
$var wire 32 t sh_t4 [31:0] $end
$var wire 32 u sh_t3 [31:0] $end
$var wire 32 v sh_t2 [31:0] $end
$var wire 32 w sh_t1 [31:0] $end
$var wire 32 x sh_out [31:0] $end
$var wire 32 y sh_in [31:0] $end
$var wire 5 z rs2 [4:0] $end
$var wire 5 { rs1 [4:0] $end
$var wire 32 | regsQ2 [31:0] $end
$var wire 32 } regsQ1 [31:0] $end
$var wire 5 ~ rd [4:0] $end
$var wire 8 !" prlist [7:0] $end
$var wire 1 "" predicate $end
$var wire 7 #" opcode [6:0] $end
$var wire 1 $" mem_halfwordAccess $end
$var wire 1 %" mem_byteAccess $end
$var wire 32 &" ldstaddr [31:0] $end
$var wire 7 '" funct7 [6:0] $end
$var wire 3 (" funct3 [2:0] $end
$var wire 32 )" aluIn1 [31:0] $end
$var wire 33 *" aluAdder [32:0] $end
$var wire 30 +" addr [31:2] $end
$var wire 32 ," Uimm [31:0] $end
$var wire 32 -" Simm [31:0] $end
$var wire 30 ." PCnext [31:2] $end
$var wire 30 /" PCadd2 [31:2] $end
$var wire 30 0" PCadd1 [31:2] $end
$var wire 1 1" LTU $end
$var wire 1 2" LT $end
$var wire 16 3" LOAD_halfword [15:0] $end
$var wire 32 4" LOAD_data [31:0] $end
$var wire 8 5" LOAD_byte [7:0] $end
$var wire 32 6" Jimm [31:0] $end
$var wire 32 7" Iimm [31:0] $end
$var wire 1 8" EQ $end
$var wire 32 9" Bimm [31:0] $end
$var reg 32 :" IR [31:0] $end
$var reg 30 ;" PCci [31:2] $end
$var reg 1 <" mmode $end
$var reg 1 =" opvalid $end
$var reg 1 >" q0 $end
$var integer 32 ?" i [31:0] $end
$upscope $end
$scope module ram0 $end
$var wire 11 @" addr [10:0] $end
$var wire 1 $ clk $end
$var wire 32 A" data_read [31:0] $end
$var wire 32 B" data_write [31:0] $end
$var wire 1 D re $end
$var wire 4 C" wrlanes [3:0] $end
$var reg 32 D" data_out [31:0] $end
$upscope $end
$scope module uart0 $end
$var wire 1 $ clk $end
$var wire 16 E" d [15:0] $end
$var wire 1 F" falling $end
$var wire 1 G fe $end
$var wire 8 G" q [7:0] $end
$var wire 1 - rd $end
$var wire 1 H" resinc $end
$var wire 1 # rxd $end
$var wire 1 < tend $end
$var wire 1 / wrbaud $end
$var wire 1 1 wrtx $end
$var wire 1 7 txd $end
$var wire 1 I" shift $end
$var wire 1 J" rxst $end
$var wire 1 K" clko $end
$var wire 1 L" clki0 $end
$var reg 4 M" cbrx [3:0] $end
$var reg 4 N" cntbit [3:0] $end
$var reg 12 O" divider [11:0] $end
$var reg 12 P" divrx [11:0] $end
$var reg 12 Q" divtx [11:0] $end
$var reg 1 I dv $end
$var reg 1 @ ove $end
$var reg 8 R" rbr [7:0] $end
$var reg 1 S" rdy $end
$var reg 2 T" rrxd [1:0] $end
$var reg 1 U" rxst0 $end
$var reg 9 V" shrx [8:0] $end
$var reg 9 W" shtx [8:0] $end
$var reg 1 X" stopb $end
$var reg 8 Y" thr [7:0] $end
$var reg 1 : thre $end
$upscope $end
$scope module uartb0 $end
$var wire 1 $ clk $end
$var wire 32 Z" d [31:0] $end
$var wire 1 [" falling $end
$var wire 1 F fe $end
$var wire 1 \" next_byte_request $end
$var wire 8 ]" q [7:0] $end
$var wire 1 . rd $end
$var wire 1 ^" resinc $end
$var wire 1 * rxd $end
$var wire 1 ; tend $end
$var wire 1 0 wrbaud $end
$var wire 1 2 wrtx $end
$var wire 1 6 txd $end
$var wire 1 _" shift $end
$var wire 1 `" rxst $end
$var wire 1 a" clko $end
$var wire 1 b" clki0 $end
$var reg 4 c" cbrx [3:0] $end
$var reg 4 d" cntbit [3:0] $end
$var reg 2 e" cntbyte [1:0] $end
$var reg 1 f" data_word_pending $end
$var reg 12 g" divider [11:0] $end
$var reg 12 h" divrx [11:0] $end
$var reg 12 i" divtx [11:0] $end
$var reg 1 H dv $end
$var reg 1 j" load_shift_reg $end
$var reg 1 k" mode $end
$var reg 1 l" moden $end
$var reg 1 ? ove $end
$var reg 8 m" rbr [7:0] $end
$var reg 1 n" rdy $end
$var reg 2 o" rrxd [1:0] $end
$var reg 1 p" rxst0 $end
$var reg 9 q" shrx [8:0] $end
$var reg 9 r" shtx [8:0] $end
$var reg 1 s" stopb $end
$var reg 32 t" tbr [31:0] $end
$var reg 8 u" thr [7:0] $end
$var reg 1 v" thr_just_loaded $end
$var reg 1 9 thre $end
$upscope $end
$upscope $end
$upscope $end
$enddefinitions $end
#0
$dumpvars
0v"
bx u"
bx t"
xs"
b111111111 r"
bx q"
xp"
b0 o"
1n"
bx m"
xl"
xk"
0j"
b0 i"
b0 h"
b0 g"
0f"
bx e"
bx d"
b1111 c"
1b"
1a"
1`"
1_"
0^"
bx ]"
1\"
0["
b0 Z"
bx Y"
xX"
b111111111 W"
bx V"
xU"
b0 T"
1S"
bx R"
b0 Q"
b0 P"
b0 O"
bx N"
b1111 M"
1L"
1K"
1J"
1I"
0H"
bx G"
0F"
b0 E"
bx D"
b0 C"
b0 B"
bx A"
b0 @"
b10000 ?"
0>"
0="
0<"
bx ;"
bx :"
bx0 9"
18"
bx 7"
bx0 6"
bx 5"
bx 4"
bx 3"
02"
01"
b1 0"
bx /"
b1 ."
bx -"
bx000000000000 ,"
b0 +"
b0 *"
b0 )"
bx ("
bx '"
bx &"
x%"
x$"
bx #"
x""
b10100001 !"
b0 ~
b0 }
b0 |
b0 {
b0 z
b0 y
b0 x
b0 w
b0 v
b0 u
b0 t
b0 s
b0 r
b0 q
0p
0o
b0 n
bx m
0l
0k
0j
0i
0h
0g
0f
0e
0d
0c
0b
0a
0`
bx _
0^
0]
0\
0[
0Z
0Y
b0 X
b0 W
b0 V
b0 U
b0 T
b0 S
xR
b0 Q
b0 P
b0 O
b0 N
bx M
bx L
b0zz K
b0 J
0I
0H
xG
xF
0E
1D
b0 C
bx B
b0 A
0@
0?
b0 >
b0 =
1<
1;
1:
19
08
17
16
bx 5
bx 4
b0 3
02
01
00
0/
0.
0-
0,
0+
1*
1)
0(
bx '
0&
0%
0$
1#
0"
0!
$end
#5
0R
b0x0000000000000001101111 4"
b1101111 5"
b1101111 3"
b10000000000000001101111 L
b10000000000000001101111 m
1H"
1^"
b0 /"
b0 ;"
b10000000000000001101111 B
b10000000000000001101111 A"
b10000000000000001101111 D"
b1 T"
1U"
b1 o"
1p"
b1 P
1$
1!
#10
0$
0!
#15
b1101111 4"
0^"
0H"
1%"
0$"
b0 &"
b1101111 #"
1""
b0 ("
b0 '"
b10000000000000000000000 ,"
b100 7"
b0 -"
b0 9"
b100 6"
b11 o"
b11 T"
b10000000000000001101111 :"
b10 P
1$
1!
#20
0$
0!
#25
b11 P
1$
1!
#30
0$
0!
#35
b100 P
1$
1!
#40
0$
0!
#45
b101 P
1$
1!
#50
0$
0!
#55
b110 P
1$
1!
#60
0$
0!
#65
b111 P
1$
1!
#70
0$
0!
#75
b1000 P
1$
1!
#77
0)
1"
#80
0$
0!
#85
bx0x110 M
1o
b100 n
1`
b1 /"
b1 V
b1 >
b1 @"
b1 ."
b1zz K
b1 +"
b100 z
1f
bx U
b10 0"
b1 S
b1 T
1="
b1001 P
1$
1!
#90
0$
0!
#95
b110111 4"
b110111 5"
b10000100110111 3"
b10000100110111 L
b10000100110111 m
0o
b0 n
0`
b0 V
b10 ."
b0 z
0f
0="
b10000100110111 B
b10000100110111 A"
b10000100110111 D"
b1 /"
b1 ;"
b1010 P
1$
1!
#100
0$
0!
#105
bx M
b10000000000000 n
b10000000000000 X
b10100010 !"
08"
b10000000000000 *"
1o
b10000000000000 W
b10000100110111 4"
b10 >
b10 @"
b11 ."
0%"
b10 &"
b10zz K
b10 +"
b10 ~
1i
b110111 #"
0""
b10 ("
b10000000000000 ,"
b0 7"
b10 -"
b10 9"
b10000000000000 6"
b11 0"
b10 S
b10 T
1="
b10000100110111 :"
b1011 P
1$
1!
#110
0$
0!
#115
b10111 5"
b10010100010111 4"
b10010100010111 3"
bx0x110 M
b10010100010111 L
b10010100010111 m
b11 >
b11 @"
b100 ."
b11zz K
b11 +"
b100 0"
b11 S
b11 T
b10010100010111 B
b10010100010111 A"
b10010100010111 D"
b10 /"
b10 ;"
b1100 P
1$
1!
#120
0$
0!
#125
b10011 5"
b10111111100001010000010100010011 4"
b10100010011 3"
bx M
b10111111100001010000010100010011 L
b10111111100001010000010100010011 m
b10000000001100 n
b10000000001100 X
b1100 x
b1100 s
b1100 t
b1100 u
b1100 v
b1100 w
b1100 y
b10000000001100 *"
b1100 )"
b100 >
b100 @"
b101 ."
0i
1c
b1010 ~
b1010 &"
b100zz K
b100 +"
b10111 #"
b1010 -"
b1010 9"
b101 0"
b100 S
b100 T
b10010100010111 :"
b11 /"
b11 ;"
b10111111100001010000010100010011 B
b10111111100001010000010100010011 A"
b10111111100001010000010100010011 D"
b1101 P
1$
1!
#130
0$
0!
#135
1R
b10010111 5"
b1010110010111 3"
bx0x110 M
b1010110010111 L
b1010110010111 m
b1110000000100 X
b1100010 !"
11"
b0 x
b0 s
b1110000000100 n
b0 t
b0 u
b0 v
b0 w
1o
b10000000001100 }
b10000000001100 y
b11111111111111111111111110010111 4"
b11111111111111111111101111111000 W
b101 >
b101 @"
b110 ."
b100000000000000000001110000000100 *"
b10000000001100 )"
1e
0c
1%"
b1010 {
b11000 z
b1101111110110 &"
b101zz K
b101 +"
b10011 #"
b0 ("
b1011111 '"
b10111111100001010000000000000000 ,"
b11111111111111111111101111111000 7"
b11111111111111111111101111101010 -"
b11111111111111111111001111101010 9"
b11111111111101010000001111111000 6"
b110 0"
b101 S
b101 T
b1010110010111 B
b1010110010111 A"
b1010110010111 D"
b100 /"
b100 ;"
b10111111100001010000010100010011 :"
b1110 P
1$
1!
#140
0$
0!
#145
b10010011 5"
b1000010110010011 3"
bx M
b10000101001101011000010110010011 L
b10000101001101011000010110010011 m
b1000000010100 n
b1000000010100 X
b10100 x
b10100 s
b10100 t
b10100 u
b10100 v
b10100 w
b1000000000000 W
b10100010 !"
01"
1R
b1000000010100 *"
b10100 )"
b10100 y
b11111111111111111000010110010011 4"
b110 >
b110 @"
b111 ."
0e
1c
0a
0%"
1$"
b1011 ~
b0 {
b0 z
b110zz K
b110 +"
b1011 &"
b0 }
b10111 #"
1""
b1 ("
b0 '"
b1000000000000 ,"
b0 7"
b1011 -"
b100000001010 9"
b1000000000000 6"
b111 0"
b110 S
b110 T
b1010110010111 :"
b101 /"
b101 ;"
b10000101001101011000010110010011 B
b10000101001101011000010110010011 A"
b10000101001101011000010110010011 D"
b1111 P
1$
1!
#150
0$
0!
#155
0R
bx0x110 M
b10011000010111 L
b10011000010111 m
b0 3"
b0 5"
b100001100111 X
b1100010 !"
11"
b0 x
b0 s
b100001100111 n
b0 t
b0 u
b0 v
b0 w
1o
b1000000010100 }
b1000000010100 y
b0 4"
b11111111111111111111100001010011 W
b111 >
b111 @"
b1000 ."
b100000000000000000000100001100111 *"
b1000000010100 )"
1e
0c
1%"
0$"
b1011 {
b10011 z
b100001011111 &"
b111zz K
b111 +"
b10011 #"
0""
b0 ("
b1000010 '"
b10000101001101011000000000000000 ,"
b11111111111111111111100001010011 7"
b11111111111111111111100001001011 -"
b11111111111111111111100001001010 9"
b11111111111101011000100001010010 6"
b1000 0"
b111 S
b111 T
b10011000010111 B
b10011000010111 A"
b10011000010111 D"
b110 /"
b110 ;"
b10000101001101011000010110010011 :"
b10000 P
1$
1!
#160
0$
0!
#165
bx M
b10111110100001100000011000010011 L
b10111110100001100000011000010011 m
b10000000011100 n
b11100 x
b10000000011100 X
b11100 s
b10011 5"
b11100 t
b11100 u
b11000010011 3"
b11100 v
b11100 w
b10000000000000 W
b10100010 !"
01"
b11100 y
b10000000011100 *"
b11100 )"
b10111110100001100000011000010011 4"
b1000 >
b1000 @"
b1001 ."
0e
1c
0%"
b1100 ~
b0 {
b0 z
b1000zz K
b1000 +"
b1100 &"
b0 }
b10111 #"
b10 ("
b0 '"
b10000000000000 ,"
b0 7"
b1100 -"
b1100 9"
b10000000000000 6"
b1001 0"
b1000 S
b1000 T
b10011000010111 :"
b111 /"
b111 ;"
b10111110100001100000011000010011 B
b10111110100001100000011000010011 A"
b10111110100001100000011000010011 D"
b10001 P
1$
1!
#170
0$
0!
#175
b1100011 5"
b101110001100011 3"
b110001010101110001100011 L
b110001010101110001100011 m
b1110000000100 X
b1100010 !"
11"
b100000 x
b100000 s
b1110000000100 n
b100000 t
b100000 u
b100000 v
b10000000011100 w
1o
b10000000011100 }
b10000000011100 y
b1100011 4"
b11111111111111111111101111101000 W
b1001 >
b1001 @"
b1010 ."
b100000000000000000001110000000100 *"
b10000000011100 )"
1e
0c
1%"
b1100 {
b1000 z
b1110000001000 &"
b1001zz K
b1001 +"
b10011 #"
b0 ("
b1011111 '"
b10111110100001100000000000000000 ,"
b11111111111111111111101111101000 7"
b11111111111111111111101111101100 -"
b11111111111111111111001111101100 9"
b11111111111101100000001111101000 6"
b1010 0"
b1001 S
b1001 T
b110001010101110001100011 B
b110001010101110001100011 A"
b110001010101110001100011 D"
b1000 /"
b1000 ;"
b10111110100001100000011000010011 :"
b10010 P
1$
1!
#180
0$
0!
#185
b1010011010000011 3"
b1011010011010000011 L
b1011010011010000011 m
18"
b111000000 x
0o
b111000000 s
b0 n
02"
b111000000 t
b1110000000100 v
b111000000 u
b1110000000100 E"
b1110000000100 w
b10000011 5"
b110 V
b1110000000100 J
b1110000000100 r
b1110000000100 B"
b1110000000100 Z"
b1110000000100 W
b1110000000100 y
1`
b10100001 !"
01"
b111000000 X
b1110000000100 |
b1110000000100 )"
b0 *"
1^
b1010011010000011 4"
b1010 >
b1010 @"
b1111 ."
0e
1d
0%"
1$"
b11000 ~
b1010 {
b1100 z
b1010zz K
b1010 +"
b1110000011100 &"
b1110000000100 }
b1100011 #"
1""
b101 ("
b0 '"
b110001010101000000000000 ,"
b1100 7"
b11000 -"
b11000 9"
b1010101000000001100 6"
b1011 0"
b1010 S
b1010 T
b110001010101110001100011 :"
b1111 /"
b1001 ;"
b1011010011010000011 B
b1011010011010000011 A"
b1011010011010000011 D"
b10011 P
1$
1!
#190
0$
0!
#195
b110101010010000000100011 L
b110101010010000000100011 m
b0 x
b0 s
b0 t
b0 v
b0 u
b0 w
b0 y
b0 W
b0 )"
b0 E"
b10000000100011 3"
b100011 5"
b0 J
b0 r
b0 B"
b0 Z"
b0 X
b110101010010000000100011 4"
b0 V
b0 }
b0 |
b10100001 !"
18"
0`
0R
b0 *"
0^
b1111 >
b1111 @"
b10000 ."
0$"
b1101 &"
b0 ~
b0 {
b0 z
0d
b1111zz K
b1111 +"
b11 #"
0""
b10 ("
b1011010000000000000 ,"
b0 7"
b1101 -"
b100000001100 9"
b1011010000000000000 6"
0="
b10000 0"
b1111 S
b1111 T
b110101010010000000100011 B
b110101010010000000100011 A"
b110101010010000000100011 D"
b1010 /"
b1010 ;"
b1011010011010000011 :"
b10100 P
1$
1!
#200
0$
0!
#205
b10011 5"
b10111100100001010000010100010011 4"
b10100010011 3"
bx0x110 M
b10111100100001010000010100010011 L
b10111100100001010000010100010011 m
b1110000000100 x
b1110000000100 s
b1110000000100 t
b1110000000100 u
b1110000000100 v
b1110000000100 w
b10100010 !"
08"
b1110000000100 y
b1110000000100 *"
b1110000000100 )"
b1110000000100 }
b1111 3
b1111 C"
b11100000001 >
b11100000001 @"
b10000 ."
b1111 A
b1111 q
b1110000000100 &"
b11100000001zz K
b11100000001 +"
b1010 {
b1101 z
1k
b100011 #"
b110101010010000000000000 ,"
b1101 7"
b0 -"
b0 9"
b1010010100000001100 6"
b10000 0"
b10000 S
b10000 T
1="
b110101010010000000100011 :"
b1111 /"
b1111 ;"
b10111100100001010000010100010011 B
b10111100100001010000010100010011 A"
b10111100100001010000010100010011 D"
b10101 P
1$
1!
#210
0$
0!
#215
b0 5"
b0 3"
bx M
b0 L
b0 m
b0 x
b0 s
b0 t
b0 X
b0 u
b0 v
b0 w
1""
b10100001 !"
18"
b0 y
b0 *"
b0 )"
b10001 ."
b10000 >
b10000 @"
b0 }
b10000zz K
b10000 +"
b10001 0"
b0 3
b0 C"
b0 4"
b0 A
b0 q
1%"
b11111111111111111111101111001010 &"
b0 {
b0 z
0k
b10011 #"
b0 ("
b1011110 '"
b10111100100001010000000000000000 ,"
b11111111111111111111101111001000 7"
b11111111111111111111101111001010 -"
b11111111111111111111001111001010 9"
b11111111111101010000001111001000 6"
0="
b0 B
b0 A"
b0 D"
b10000 /"
b10000 ;"
b10111100100001010000010100010011 :"
b10110 P
1$
1!
#220
0$
0!
#225
1R
b11111111111111111111111110010111 4"
b10010111 5"
b10010110010111 3"
b10010110010111 L
b10010110010111 m
b10001 >
b10001 @"
b10010 ."
b0 &"
b10001zz K
b10001 +"
b0 #"
b0 '"
b0 ,"
b0 7"
b0 -"
b0 9"
b0 6"
b10010 0"
b10001 S
b10001 T
1="
b0 :"
b10010110010111 B
b10010110010111 A"
b10010110010111 D"
b10111 P
1$
1!
#230
0$
0!
#235
b10010011 5"
b1000010110010011 3"
b10111110010001011000010110010011 L
b10111110010001011000010110010011 m
b10000001000100 n
b10000001000100 X
b1000100 x
b1000100 s
b1000100 t
b1000100 u
b1000100 v
b1000100 w
b10000000000000 W
b10100010 !"
08"
b1000100 y
1o
b10000001000100 *"
b1000100 )"
1R
b10111110010001011000010110010011 4"
b10010 >
b10010 @"
b10011 ."
1c
0%"
b1011 ~
b1011 &"
b10010zz K
b10010 +"
b10111 #"
0""
b10 ("
b10000000000000 ,"
b1011 -"
b100000001010 9"
b10000000000000 6"
b10011 0"
b10010 S
b10010 T
b10111110010001011000010110010011 B
b10111110010001011000010110010011 A"
b10111110010001011000010110010011 D"
b10001 /"
b10001 ;"
b10010110010111 :"
b11000 P
1$
1!
#240
0$
0!
#245
0R
b1100011 5"
b101100001100011 3"
b101101010101100001100011 L
b101101010101100001100011 m
b1100010 !"
11"
b1110000101000 X
b1000000100 x
b1110000101000 n
b1000000100 s
b1000000100 t
b1000000100 u
b10000001000100 v
1o
b10000001000100 }
b10000001000100 w
b1100011 4"
b11111111111111111111101111100100 W
b10000001000100 y
b10011 >
b10011 @"
b10100 ."
1e
0c
1%"
b1011 {
b100 z
b1110000101111 &"
b100000000000000000001110000101000 *"
b10000001000100 )"
b10011zz K
b10011 +"
b10011 #"
b0 ("
b1011111 '"
b10111110010001011000000000000000 ,"
b11111111111111111111101111100100 7"
b11111111111111111111101111101011 -"
b11111111111111111111101111101010 9"
b11111111111101011000001111100100 6"
b10100 0"
b10011 S
b10011 T
b10111110010001011000010110010011 :"
b10010 /"
b10010 ;"
b101101010101100001100011 B
b101101010101100001100011 A"
b101101010101100001100011 D"
b11001 P
1$
1!
#250
0$
0!
#255
b10000000100011 3"
b1010010000000100011 L
b1010010000000100011 m
0o
b0 n
12"
b11100 x
b11100 u
b11100 t
b11100 s
b1110000101000 E"
b11100 v
b100011 5"
b0 V
b1110000101000 J
b1110000101000 r
b1110000101000 B"
b1110000101000 Z"
b1110000101000 W
b1110000000100 w
0`
b1010010 !"
11"
b11100 X
b1110000101000 |
b1110000000100 y
1^
b10000000100011 4"
b111111111111111111111111111011100 *"
b1110000000100 )"
b10100 >
b10100 @"
b10101 ."
0e
1d
0%"
1$"
b10000 ~
b1010 {
b1011 z
b10100zz K
b10100 +"
b1100011 #"
0""
b101 ("
b0 '"
b101101010101000000000000 ,"
b1011 7"
b10000 -"
b10000 9"
b1010101100000001010 6"
b1110000010100 &"
b1110000000100 }
b10101 0"
b10100 S
b10100 T
b1010010000000100011 B
b1010010000000100011 A"
b1010010000000100011 D"
b10011 /"
b10011 ;"
b101101010101100001100011 :"
b11010 P
1$
1!
#260
0$
0!
#265
bx0x110 M
b10001010000010100010011 L
b10001010000010100010011 m
b1110000000100 x
b1110000000100 s
b1110000000100 t
b1110000000100 u
b1110000000100 v
b0 W
b0 E"
02"
b10100010011 3"
b10011 5"
b0 J
b0 r
b0 B"
b0 Z"
b1111 3
b1111 C"
b10100010 !"
01"
b0 X
b10001010000010100010011 4"
b0 |
b1111 A
b1111 q
b1110000000100 *"
0^
b11100000001 >
b11100000001 @"
b10101 ."
1k
0d
0$"
b0 ~
b0 z
b1110000000100 &"
b11100000001zz K
b11100000001 +"
b100011 #"
b10 ("
b1010010000000000000 ,"
b0 7"
b0 -"
b0 9"
b1010010000000000000 6"
b10101 0"
b10101 S
b10101 T
b1010010000000100011 :"
b10100 /"
b10100 ;"
b10001010000010100010011 B
b10001010000010100010011 A"
b10001010000010100010011 D"
b11011 P
1$
1!
#270
0$
0!
#275
b0 5"
b0 3"
bx M
b0 L
b0 m
b0 x
b0 s
b0 t
b0 X
b0 u
b0 v
b0 w
1""
b10100001 !"
18"
b0 y
b0 *"
b0 )"
b10110 ."
b10101 >
b10101 @"
b0 }
b10101zz K
b10101 +"
b10110 0"
b0 3
b0 C"
b0 4"
b0 A
b0 q
1%"
b1010 &"
b0 {
0k
b10011 #"
b0 ("
b10001010000000000000000 ,"
b100 7"
b1010 -"
b1010 9"
b1010000000000000100 6"
0="
b0 B
b0 A"
b0 D"
b10101 /"
b10101 ;"
b10001010000010100010011 :"
b11100 P
1$
1!
#280
0$
0!
#285
1R
b11111111111111111111111111100011 4"
b11100011 5"
b100110011100011 3"
b11111110101101010100110011100011 L
b11111110101101010100110011100011 m
b10110 >
b10110 @"
b10111 ."
b0 &"
b10110zz K
b10110 +"
b0 #"
b0 ,"
b0 7"
b0 -"
b0 9"
b0 6"
b10111 0"
b10110 S
b10110 T
1="
b0 :"
b11111110101101010100110011100011 B
b11111110101101010100110011100011 A"
b11111110101101010100110011100011 D"
b11101 P
1$
1!
#290
0$
0!
#295
b11101111 3"
b100000000000000011101111 L
b100000000000000011101111 m
b11100 x
b11100 s
b11100 t
b101100 X
b11100 u
b11100 v
b111111111111111111111111111110 V
b1110000000100 w
b1110000101000 W
1`
b1110000000100 y
b1110000000100 )"
b1110000101000 E"
12"
b11101111 5"
b1110000101000 J
b1110000101000 r
b1110000101000 B"
b1110000101000 Z"
11"
b1010010 !"
08"
b11101111 4"
b1110000000100 }
b1110000101000 |
b111111111111111111111111111011100 *"
1^
0R
b10111 >
b10111 @"
b10100 ."
1d
b11001 ~
b1010 {
b1011 z
b1101111111101 &"
b10111zz K
b10111 +"
b1100011 #"
1""
b100 ("
b1111111 '"
b11111110101101010100000000000000 ,"
b11111111111111111111111111101011 7"
b11111111111111111111111111111001 -"
b11111111111111111111111111111000 9"
b11111111111101010100111111101010 6"
b11000 0"
b10111 S
b10111 T
b100000000000000011101111 B
b100000000000000011101111 A"
b100000000000000011101111 D"
b10100 /"
b10110 ;"
b11111110101101010100110011100011 :"
b11110 P
1$
1!
#300
0$
0!
#305
b1101111 L
b1101111 m
b0 x
b0 s
b0 t
b0 u
18"
b0 v
b0 w
b0 y
b0 W
b0 X
b0 )"
b0 E"
02"
b1101111 3"
b1101111 5"
b0 J
b0 r
b0 B"
b0 Z"
b1101111 4"
b0 V
b0 }
b0 |
b10100001 !"
01"
0`
0R
b10100 >
b10100 @"
b0 *"
0^
b1 &"
b10101 ."
b10100zz K
b10100 +"
b0 ~
b0 {
b0 z
0d
b1101111 #"
1""
b0 ("
b0 '"
b100000000000000000000000 ,"
b1000 7"
b1 -"
b100000000000 9"
b1000 6"
b10101 0"
b10100 S
b10100 T
0="
b100000000000000011101111 :"
b10111 /"
b10111 ;"
b1101111 B
b1101111 A"
b1101111 D"
b11111 P
1$
1!
#310
0$
0!
#315
b10011 4"
b10011 5"
b10100010011 3"
b10001010000010100010011 L
b10001010000010100010011 m
1o
b1010100 n
1`
b10101 >
b10101 @"
b10100 ."
b0 &"
1f
b10101zz K
b10101 +"
b0 ,"
b0 7"
b0 -"
b0 9"
b0 6"
1="
b10110 0"
b10101 S
b10101 T
b10001010000010100010011 B
b10001010000010100010011 A"
b10001010000010100010011 D"
b10100 /"
b10100 ;"
b1101111 :"
b100000 P
1$
1!
#320
0$
0!
#325
1R
b11111111111111111111111111100011 4"
b11100011 5"
b100110011100011 3"
b11111110101101010100110011100011 L
b11111110101101010100110011100011 m
0o
b0 n
0`
b10100 >
b10100 @"
b1010 &"
b10101 ."
b10100zz K
b10100 +"
0f
b10011 #"
b10001010000000000000000 ,"
b100 7"
b1010 -"
b1010 9"
b1010000000000000100 6"
b10101 0"
b10100 S
b10100 T
0="
b10001010000010100010011 :"
b10101 /"
b10101 ;"
b11111110101101010100110011100011 B
b11111110101101010100110011100011 A"
b11111110101101010100110011100011 D"
b100001 P
1$
1!
#330
0$
0!
#335
b10100010011 3"
b10001010000010100010011 L
b10001010000010100010011 m
b11100 x
b11100 s
b11100 t
b101100 X
b11100 u
b11100 v
b1110000000100 w
b1110000101000 W
b111111111111111111111111111110 V
b1110000000100 y
1`
b1110000000100 )"
b1110000101000 E"
b1110000101000 J
b1110000101000 r
b1110000101000 B"
b1110000101000 Z"
12"
b10011 5"
b10011 4"
b1110000000100 }
b1110000101000 |
11"
b1010010 !"
08"
0R
b111111111111111111111111111011100 *"
1^
b10101 >
b10101 @"
b10010 ."
b1101111111101 &"
b11001 ~
b1010 {
b1011 z
1d
b10101zz K
b10101 +"
b1100011 #"
1""
b100 ("
b1111111 '"
b11111110101101010100000000000000 ,"
b11111111111111111111111111101011 7"
b11111111111111111111111111111001 -"
b11111111111111111111111111111000 9"
b11111111111101010100111111101010 6"
1="
b10110 0"
b10101 S
b10101 T
b10001010000010100010011 B
b10001010000010100010011 A"
b10001010000010100010011 D"
b10010 /"
b10100 ;"
b11111110101101010100110011100011 :"
b100010 P
1$
1!
#340
0$
0!
#345
1R
b11111110101101010100110011100011 L
b11111110101101010100110011100011 m
b0 x
b0 s
b0 t
b0 u
18"
b0 v
b0 w
b0 y
b0 W
b0 X
b0 )"
b11111111111111111111111111100011 4"
b0 E"
02"
b100110011100011 3"
b11100011 5"
b0 J
b0 r
b0 B"
b0 Z"
b0 V
b0 }
b0 |
b10100001 !"
01"
0`
b10010 >
b10010 @"
b0 *"
0^
b1010 &"
b10011 ."
b10010zz K
b10010 +"
b0 ~
b0 {
b0 z
0d
b10011 #"
1""
b0 ("
b0 '"
b10001010000000000000000 ,"
b100 7"
b1010 -"
b1010 9"
b1010000000000000100 6"
b10011 0"
b10010 S
b10010 T
0="
b10001010000010100010011 :"
b10101 /"
b10101 ;"
b11111110101101010100110011100011 B
b11111110101101010100110011100011 A"
b11111110101101010100110011100011 D"
b100011 P
1$
1!
#350
0$
0!
