laRVa_DC/tb.vcd
$date
	Fri Nov 21 23:45:30 2025
$end
$version
	Icarus Verilog
$end
$timescale
	10ps
$end
$scope module tb $end
$var wire 1 ! txd $end
$var wire 1 " thre $end
$var wire 1 # tend $end
$var wire 8 $ q [7:0] $end
$var wire 1 % ove $end
$var wire 1 & fe $end
$var wire 1 ' dv $end
$var reg 1 ( clk $end
$var reg 32 ) d [31:0] $end
$var reg 1 * rd $end
$var reg 1 + rxd $end
$var reg 1 , wrbaud $end
$var reg 1 - wrtx $end
$var integer 32 . char_time_ns [31:0] $end
$var integer 32 / divider_value [31:0] $end
$scope module dut $end
$var wire 1 ( clk $end
$var wire 32 0 d [31:0] $end
$var wire 1 1 falling $end
$var wire 1 & fe $end
$var wire 1 2 next_byte_request $end
$var wire 8 3 q [7:0] $end
$var wire 1 * rd $end
$var wire 1 4 resinc $end
$var wire 1 + rxd $end
$var wire 1 # tend $end
$var wire 1 , wrbaud $end
$var wire 1 - wrtx $end
$var wire 1 ! txd $end
$var wire 1 5 shift $end
$var wire 1 6 rxst $end
$var wire 1 7 clko $end
$var wire 1 8 clki0 $end
$var parameter 32 9 BAUDBITS $end
$var reg 4 : cbrx [3:0] $end
$var reg 4 ; cntbit [3:0] $end
$var reg 2 < cntbyte [1:0] $end
$var reg 1 = data_word_pending $end
$var reg 9 > divider [8:0] $end
$var reg 9 ? divrx [8:0] $end
$var reg 9 @ divtx [8:0] $end
$var reg 1 ' dv $end
$var reg 1 A load_shift_reg $end
$var reg 1 B mode $end
$var reg 1 C moden $end
$var reg 1 % ove $end
$var reg 8 D rbr [7:0] $end
$var reg 1 E rdy $end
$var reg 2 F rrxd [1:0] $end
$var reg 1 G rxst0 $end
$var reg 9 H shrx [8:0] $end
$var reg 9 I shtx [8:0] $end
$var reg 1 J stopb $end
$var reg 32 K tbr [31:0] $end
$var reg 8 L thr [7:0] $end
$var reg 1 M thr_just_loaded $end
$var reg 1 " thre $end
$upscope $end
$scope task send_byte_normal $end
$var reg 8 N data [7:0] $end
$upscope $end
$scope task send_word_burst $end
$var reg 32 O data [31:0] $end
$upscope $end
$scope task uart_read $end
$upscope $end
$upscope $end
$enddefinitions $end
$comment Show the parameter values. $end
$dumpall
b1001 9
$end
#0
$dumpvars
bx O
bx N
0M
bx L
bx K
xJ
b111111111 I
bx H
xG
b0 F
1E
bx D
xC
xB
0A
b0 @
b0 ?
b0 >
0=
bx <
bx ;
b1111 :
18
17
16
15
04
bx 3
12
01
b0 0
b111 /
b11001000000 .
0-
0,
1+
0*
b0 )
0(
0'
x&
0%
bx $
1#
1"
1!
$end
#1000
14
b1 F
1G
1(
#2000
0(
#3000
04
b11 F
1(
#4000
0(
#5000
05
0B
b111 >
1(
b111 )
b111 0
1,
#6000
0(
#7000
08
b111 ?
07
b111 @
1(
b1000001 N
0,
#7400
1-
b1000001 )
b1000001 0
#8000
0(
#9000
b0 <
1=
0C
b1000001 K
b110 @
b110 ?
1(
#9400
0-
#10000
0(
#11000
0#
02
b101 ?
0=
1M
0"
b1000001 L
b101 @
1(
#12000
0(
#13000
17
b0 @
1A
0M
b100 ?
1(
#14000
0(
#15000
15
b11 ?
b0 ;
b101000001 I
1"
0E
0A
07
b111 @
1(
#16000
0(
#17000
b110 @
05
b10 ?
1(
#18000
0(
#19000
b1 ?
b101 @
1(
#20000
0(
#21000
b100 @
18
b0 ?
1(
#22000
0(
#23000
08
b111 ?
b11 @
1(
#24000
0(
#25000
b10 @
b110 ?
1(
#26000
0(
#27000
b101 ?
b1 @
1(
#28000
0(
#29000
17
b0 @
b100 ?
1(
#30000
0(
#31000
0!
15
b11 ?
b1 ;
b110100000 I
07
b111 @
1(
#31100
0+
#32000
0(
#33000
11
14
b110 @
b10 F
05
b10 ?
1(
#34000
0(
#35000
04
01
06
b1001 :
b111 ?
b0 F
b101 @
1(
#36000
0(
#37000
b100 @
b110 ?
0G
1(
#38000
0(
#39000
b101 ?
b11 @
1(
#40000
0(
#41000
b10 @
b100 ?
1(
#42000
0(
#43000
15
b11 ?
b1 @
1(
#44000
0(
#45000
17
b0 @
05
b10 ?
b1000 :
b0xxxxxxxx H
1(
#46000
0(
#47000
b1 ?
b10 ;
b111010000 I
07
b111 @
1(
#48000
0(
#49000
b110 @
18
b0 ?
1(
#50000
0(
#51000
08
b111 ?
b101 @
1(
#52000
0(
#53000
b100 @
b110 ?
1(
#54000
0(
#55000
b101 ?
b11 @
1(
#56000
0(
#57000
b10 @
b100 ?
1(
#58000
0(
#59000
15
b11 ?
b1 @
1(
#60000
0(
#61000
17
b0 @
05
b10 ?
b111 :
b0xxxxxxx H
1(
#62000
0(
#63000
b1 ?
b11 ;
b111101000 I
07
b111 @
1(
#64000
0(
#65000
b110 @
18
b0 ?
1(
#66000
0(
#67000
08
b111 ?
b101 @
1(
#68000
0(
#69000
b100 @
b110 ?
1(
#70000
0(
#71000
b101 ?
b11 @
1(
#72000
0(
#73000
b10 @
b100 ?
1(
#74000
0(
#75000
15
b11 ?
b1 @
1(
#76000
0(
#77000
17
b0 @
05
b10 ?
b110 :
b0xxxxxx H
1(
#78000
0(
#79000
b1 ?
b100 ;
b111110100 I
07
b111 @
1(
#80000
0(
#81000
b110 @
18
b0 ?
1(
#82000
0(
#83000
08
b111 ?
b101 @
1(
#84000
0(
#85000
b100 @
b110 ?
1(
#86000
0(
#87000
b101 ?
b11 @
1(
#88000
0(
#89000
b10 @
b100 ?
1(
#90000
0(
#91000
15
b11 ?
b1 @
1(
#92000
0(
#93000
17
b0 @
05
b10 ?
b101 :
b0xxxxx H
1(
#94000
0(
#95000
b1 ?
b101 ;
b111111010 I
07
b111 @
1(
#96000
0(
#97000
b110 @
18
b0 ?
1(
#98000
0(
#99000
08
b111 ?
b101 @
1(
#100000
0(
#101000
b100 @
b110 ?
1(
#102000
0(
#103000
b101 ?
b11 @
1(
#104000
0(
#105000
b10 @
b100 ?
1(
#106000
0(
#107000
15
b11 ?
b1 @
1(
#108000
0(
#109000
17
b0 @
05
b10 ?
b100 :
b0xxxx H
1(
#110000
0(
#111000
1!
b1 ?
b110 ;
b111111101 I
07
b111 @
1(
#111100
1+
#112000
0(
#113000
14
b110 @
b1 F
18
b0 ?
1(
#114000
0(
#115000
04
08
b111 ?
b11 F
b101 @
1(
#116000
0(
#117000
b100 @
b110 ?
1(
#118000
0(
#119000
b101 ?
b11 @
1(
#120000
0(
#121000
b10 @
b100 ?
1(
#122000
0(
#123000
15
b11 ?
b1 @
1(
#124000
0(
#125000
17
b0 @
05
b10 ?
b11 :
b100000xxx H
1(
#126000
0(
#127000
0!
b1 ?
b111 ;
b111111110 I
07
b111 @
1(
#127100
0+
#128000
0(
#129000
11
14
b110 @
b10 F
18
b0 ?
1(
#130000
0(
#131000
04
01
08
b111 ?
b0 F
b101 @
1(
#132000
0(
#133000
b100 @
b110 ?
1(
#134000
0(
#135000
b101 ?
b11 @
1(
#136000
0(
#137000
b10 @
b100 ?
1(
#138000
0(
#139000
15
b11 ?
b1 @
1(
#140000
0(
#141000
17
b0 @
05
b10 ?
b10 :
b100000xx H
1(
#142000
0(
#143000
1!
b1 ?
b1000 ;
b111111111 I
07
b111 @
1(
#143100
1+
#144000
0(
#145000
14
b110 @
b1 F
18
b0 ?
1(
#146000
0(
#147000
04
08
b111 ?
b11 F
b101 @
1(
#148000
0(
#149000
b100 @
b110 ?
1(
#150000
0(
#151000
b101 ?
b11 @
1(
#152000
0(
#153000
b10 @
b100 ?
1(
#154000
0(
#155000
15
b11 ?
b1 @
1(
#156000
0(
#157000
17
b0 @
05
b10 ?
b1 :
b10100000x H
1(
#158000
0(
#159000
b1 ?
b1001 ;
07
b111 @
1(
#160000
0(
#161000
b110 @
18
b0 ?
1(
#162000
0(
#163000
08
b111 ?
b101 @
1(
#164000
0(
#165000
b100 @
b110 ?
1(
#166000
0(
#167000
b101 ?
b11 @
1(
#168000
0(
#169000
b10 @
b100 ?
1(
#169400
1*
#170000
0(
#171000
15
b11 ?
b1 @
1(
#171400
b1000010 N
0*
#171800
1-
b1000010 )
b1000010 0
#172000
0(
#173000
1=
b1000010 K
17
b0 @
05
b10 ?
b0 :
b110100000 H
1(
#173800
0-
#174000
0(
#175000
1#
12
b1 ?
1E
b1010 ;
07
b111 @
1(
#176000
0(
#177000
0#
02
b110 @
0=
1M
0"
b1000010 L
18
b0 ?
1(
#178000
0(
#179000
08
b111 ?
1A
0M
17
b0 @
1(
#180000
0(
#181000
0!
07
b111 @
b0 ;
b101000010 I
1"
0E
0A
b110 ?
1(
#181100
0+
#182000
0(
#183000
11
14
b101 ?
b10 F
b110 @
1(
#184000
0(
#185000
04
01
b101 @
b0 F
b111 ?
1(
#186000
0(
#187000
b110 ?
b100 @
1(
#188000
0(
#189000
b11 @
b101 ?
1(
#190000
0(
#191000
b100 ?
b10 @
1(
#192000
0(
#193000
b1 @
15
b11 ?
1(
#194000
0(
#195000
16
b1111 :
b11010000 H
05
b10 ?
17
b0 @
1(
#196000
0(
#197000
1!
1&
07
b111 @
b1 ;
b110100001 I
b1 ?
1'
0J
b11010000 $
b11010000 3
b11010000 D
1G
1(
#197100
1+
#198000
0(
#199000
14
18
b0 ?
b1 F
b110 @
1(
#200000
0(
#201000
04
b101 @
b11 F
08
b111 ?
1(
#202000
0(
#203000
b110 ?
b100 @
1(
#204000
0(
#205000
b11 @
b101 ?
1(
#206000
0(
#207000
b100 ?
b10 @
1(
#208000
0(
#209000
b1 @
15
b11 ?
1(
#210000
0(
#211000
05
b10 ?
17
b0 @
1(
#212000
0(
#213000
0!
07
b111 @
b10 ;
b111010000 I
b1 ?
1(
#213100
0+
#214000
0(
#215000
11
14
18
b0 ?
b10 F
b110 @
1(
#216000
0(
#217000
04
01
b101 @
b0 F
08
b111 ?
06
b1001 :
1(
#218000
0(
#219000
0G
b110 ?
b100 @
1(
#220000
0(
#221000
b11 @
b101 ?
1(
#222000
0(
#223000
b100 ?
b10 @
1(
#224000
0(
#225000
b1 @
15
b11 ?
1(
#226000
0(
#227000
b1000 :
b1101000 H
05
b10 ?
17
b0 @
1(
#228000
0(
#229000
07
b111 @
b11 ;
b111101000 I
b1 ?
1(
#230000
0(
#231000
18
b0 ?
b110 @
1(
#232000
0(
#233000
b101 @
08
b111 ?
1(
#234000
0(
#235000
b110 ?
b100 @
1(
#236000
0(
#237000
b11 @
b101 ?
1(
#238000
0(
#239000
b100 ?
b10 @
1(
#240000
0(
#241000
b1 @
15
b11 ?
1(
#242000
0(
#243000
b111 :
b110100 H
05
b10 ?
17
b0 @
1(
#244000
0(
#245000
07
b111 @
b100 ;
b111110100 I
b1 ?
1(
#246000
0(
#247000
18
b0 ?
b110 @
1(
#248000
0(
#249000
b101 @
08
b111 ?
1(
#250000
0(
#251000
b110 ?
b100 @
1(
#252000
0(
#253000
b11 @
b101 ?
1(
#253800
b10000000000000000000000000000111 )
b10000000000000000000000000000111 0
1,
#254000
0(
#255000
b100 ?
b10 @
1B
1(
#255800
0,
#256000
0(
#257000
b1 @
15
b11 ?
1(
#258000
0(
#259000
b110 :
b11010 H
05
b10 ?
17
b0 @
1(
#260000
0(
#261000
07
b111 @
b101 ;
b111111010 I
b1 ?
1(
#262000
0(
#263000
18
b0 ?
b110 @
1(
#264000
0(
#265000
b101 @
08
b111 ?
1(
#266000
0(
#267000
b110 ?
b100 @
1(
#268000
0(
#269000
b11 @
b101 ?
1(
#270000
0(
#271000
b100 ?
b10 @
1(
#272000
0(
#273000
b1 @
15
b11 ?
1(
#274000
0(
#275000
b101 :
b1101 H
05
b10 ?
17
b0 @
1(
#276000
0(
#277000
1!
07
b111 @
b110 ;
b111111101 I
b1 ?
1(
#277100
1+
#278000
0(
#279000
14
18
b0 ?
b1 F
b110 @
1(
#280000
0(
#281000
04
b101 @
b11 F
08
b111 ?
1(
#282000
0(
#283000
b110 ?
b100 @
1(
#284000
0(
#285000
b11 @
b101 ?
1(
#286000
0(
#287000
b100 ?
b10 @
1(
#288000
0(
#289000
b1 @
15
b11 ?
1(
#290000
0(
#291000
b100 :
b100000110 H
05
b10 ?
17
b0 @
1(
#292000
0(
#293000
0!
07
b111 @
b111 ;
b111111110 I
b1 ?
1(
#293100
0+
#294000
0(
#295000
11
14
18
b0 ?
b10 F
b110 @
1(
#296000
0(
#297000
04
01
b101 @
b0 F
08
b111 ?
1(
#298000
0(
#299000
b110 ?
b100 @
1(
#300000
0(
#301000
b11 @
b101 ?
1(
#302000
0(
#303000
b100 ?
b10 @
1(
#304000
0(
#305000
b1 @
15
b11 ?
1(
#306000
0(
#307000
b11 :
b10000011 H
05
b10 ?
17
b0 @
1(
#308000
0(
#309000
1!
07
b111 @
b1000 ;
b111111111 I
b1 ?
1(
#309100
1+
#310000
0(
#311000
14
18
b0 ?
b1 F
b110 @
1(
#312000
0(
#313000
04
b101 @
b11 F
08
b111 ?
1(
#314000
0(
#315000
b110 ?
b100 @
1(
#316000
0(
#317000
b11 @
b101 ?
1(
#318000
0(
#319000
b100 ?
b10 @
1(
#320000
0(
#321000
b1 @
15
b11 ?
1(
#322000
0(
#323000
b10 :
b101000001 H
05
b10 ?
17
b0 @
1(
#324000
0(
#325000
07
b111 @
b1001 ;
b1 ?
1(
#326000
0(
#327000
18
b0 ?
b110 @
1(
#328000
0(
#329000
b101 @
08
b111 ?
1(
#330000
0(
#331000
b110 ?
b100 @
1(
#332000
0(
#333000
b11 @
b101 ?
1(
#334000
0(
#335000
b100 ?
b10 @
1(
#335800
1-
b1100001011011000110111101101000 )
b1100001011011000110111101101000 0
b1100001011011000110111101101000 O
#336000
0(
#337000
1=
1C
b1100001011011000110111101101000 K
b1 @
15
b11 ?
1(
#337800
0-
#338000
0(
#339000
b1 :
b110100000 H
05
b10 ?
17
b0 @
1(
#340000
0(
#341000
1#
12
07
b111 @
1E
b1010 ;
b1 ?
1(
#342000
0(
#343000
0#
02
18
b0 ?
b1 <
1M
0"
b1101000 L
b110 @
1(
#344000
0(
#345000
17
b0 @
1A
0M
08
b111 ?
1(
#346000
0(
#347000
0!
b110 ?
b0 ;
b101101000 I
1"
0E
0A
07
b111 @
1(
#347100
0+
#348000
0(
#349000
11
14
b110 @
b10 F
b101 ?
1(
#350000
0(
#351000
04
01
b111 ?
b0 F
b101 @
1(
#352000
0(
#353000
b100 @
b110 ?
1(
#354000
0(
#355000
b101 ?
b11 @
1(
#356000
0(
#357000
b10 @
b100 ?
1(
#358000
0(
#359000
15
b11 ?
b1 @
1(
#360000
0(
#361000
17
b0 @
05
b10 ?
b0 :
b11010000 H
1(
#362000
0(
#363000
b1 ?
b1 ;
b110110100 I
07
b111 @
1(
#364000
0(
#365000
b110 @
18
b0 ?
1(
#366000
0(
#367000
08
b111 ?
b101 @
1(
#368000
0(
#369000
b100 @
b110 ?
1(
#370000
0(
#371000
b101 ?
b11 @
1(
#372000
0(
#373000
b10 @
b100 ?
1(
#374000
0(
#375000
15
b11 ?
b1 @
1(
#376000
0(
#377000
17
b0 @
05
b10 ?
16
b1111 :
b1101000 H
1(
#378000
0(
#379000
1%
b1101000 $
b1101000 3
b1101000 D
1G
b1 ?
b10 ;
b111011010 I
07
b111 @
1(
#380000
0(
#381000
b110 @
18
b0 ?
1(
#382000
0(
#383000
08
b111 ?
b101 @
1(
#384000
0(
#385000
b100 @
b110 ?
1(
#386000
0(
#387000
b101 ?
b11 @
1(
#388000
0(
#389000
b10 @
b100 ?
1(
#390000
0(
#391000
15
b11 ?
b1 @
1(
#392000
0(
#393000
17
b0 @
05
b10 ?
1(
#394000
0(
#395000
1!
b1 ?
b11 ;
b111101101 I
07
b111 @
1(
#395100
1+
#396000
0(
#397000
14
b110 @
b1 F
18
b0 ?
1(
#398000
0(
#399000
04
08
b111 ?
b11 F
b101 @
1(
#400000
0(
#401000
b100 @
b110 ?
1(
#402000
0(
#403000
b101 ?
b11 @
1(
#404000
0(
#405000
b10 @
b100 ?
1(
#406000
0(
#407000
15
b11 ?
b1 @
1(
#408000
0(
#409000
17
b0 @
05
b10 ?
1(
#410000
0(
#411000
0!
b1 ?
b100 ;
b111110110 I
07
b111 @
1(
#411100
0+
#412000
0(
#413000
11
14
b110 @
b10 F
18
b0 ?
1(
#414000
0(
#415000
04
01
06
b1001 :
08
b111 ?
b0 F
b101 @
1(
#416000
0(
#417000
b100 @
b110 ?
0G
1(
#418000
0(
#419000
b101 ?
b11 @
1(
#420000
0(
#421000
b10 @
b100 ?
1(
#422000
0(
#423000
15
b11 ?
b1 @
1(
#424000
0(
#425000
17
b0 @
05
b10 ?
b1000 :
b110100 H
1(
#426000
0(
#427000
1!
b1 ?
b101 ;
b111111011 I
07
b111 @
1(
#427100
1+
#428000
0(
#429000
14
b110 @
b1 F
18
b0 ?
1(
#430000
0(
#431000
04
08
b111 ?
b11 F
b101 @
1(
#432000
0(
#433000
b100 @
b110 ?
1(
#434000
0(
#435000
b101 ?
b11 @
1(
#436000
0(
#437000
b10 @
b100 ?
1(
#438000
0(
#439000
15
b11 ?
b1 @
1(
#440000
0(
#441000
17
b0 @
05
b10 ?
b111 :
b100011010 H
1(
#442000
0(
#443000
b1 ?
b110 ;
b111111101 I
07
b111 @
1(
#444000
0(
#445000
b110 @
18
b0 ?
1(
#446000
0(
#447000
08
b111 ?
b101 @
1(
#448000
0(
#449000
b100 @
b110 ?
1(
#450000
0(
#451000
b101 ?
b11 @
1(
#452000
0(
#453000
b10 @
b100 ?
1(
#454000
0(
#455000
15
b11 ?
b1 @
1(
#456000
0(
#457000
17
b0 @
05
b10 ?
b110 :
b110001101 H
1(
#458000
0(
#459000
0!
b1 ?
b111 ;
b111111110 I
07
b111 @
1(
#459100
0+
#460000
0(
#461000
11
14
b110 @
b10 F
18
b0 ?
1(
#462000
0(
#463000
04
01
08
b111 ?
b0 F
b101 @
1(
#464000
0(
#465000
b100 @
b110 ?
1(
#466000
0(
#467000
b101 ?
b11 @
1(
#468000
0(
#469000
b10 @
b100 ?
1(
#470000
0(
#471000
15
b11 ?
b1 @
1(
#472000
0(
#473000
17
b0 @
05
b10 ?
b101 :
b11000110 H
1(
#474000
0(
#475000
1!
b1 ?
b1000 ;
b111111111 I
07
b111 @
1(
#475100
1+
#476000
0(
#477000
14
b110 @
b1 F
18
b0 ?
1(
#478000
0(
#479000
04
08
b111 ?
b11 F
b101 @
1(
#480000
0(
#481000
b100 @
b110 ?
1(
#482000
0(
#483000
b101 ?
b11 @
1(
#484000
0(
#485000
b10 @
b100 ?
1(
#486000
0(
#487000
15
b11 ?
b1 @
1(
#488000
0(
#489000
17
b0 @
05
b10 ?
b100 :
b101100011 H
1(
#490000
0(
#491000
b1 ?
b1001 ;
07
b111 @
1(
#492000
0(
#493000
b110 @
18
b0 ?
1(
#494000
0(
#495000
08
b111 ?
b101 @
1(
#496000
0(
#497000
b100 @
b110 ?
1(
#497800
1*
#498000
0(
#499000
0%
0'
b101 ?
b11 @
1(
#499800
0*
#500000
0(
#501000
b10 @
b100 ?
1(
#502000
0(
#503000
15
b11 ?
b1 @
1(
#504000
0(
#505000
17
b0 @
05
b10 ?
b11 :
b110110001 H
1(
#506000
0(
#507000
1#
12
b1 ?
1E
b1010 ;
07
b111 @
1(
#508000
0(
#509000
0#
02
b110 @
b10 <
1M
0"
b1101111 L
18
b0 ?
1(
#510000
0(
#511000
08
b111 ?
1A
0M
17
b0 @
1(
#512000
0(
#513000
07
b111 @
b0 ;
b101101111 I
1"
0E
0A
b110 ?
1(
#514000
0(
#515000
b101 ?
b110 @
1(
#516000
0(
#517000
b101 @
b100 ?
1(
#518000
0(
#519000
15
b11 ?
b100 @
1(
#520000
0(
#521000
b11 @
05
b10 ?
b10 :
b111011000 H
1(
#522000
0(
#523000
b1 ?
b10 @
1(
#524000
0(
#525000
b1 @
18
b0 ?
1(
#526000
0(
#527000
08
b111 ?
17
b0 @
1(
#528000
0(
#529000
07
b111 @
b1 ;
b110110111 I
b110 ?
1(
#530000
0(
#531000
b101 ?
b110 @
1(
#532000
0(
#533000
b101 @
b100 ?
1(
#534000
0(
#535000
15
b11 ?
b100 @
1(
#536000
0(
#537000
b11 @
05
b10 ?
b1 :
b111101100 H
1(
#538000
0(
#539000
b1 ?
b10 @
1(
#540000
0(
#541000
b1 @
18
b0 ?
1(
#542000
0(
#543000
08
b111 ?
17
b0 @
1(
#544000
0(
#545000
07
b111 @
b10 ;
b111011011 I
b110 ?
1(
#546000
0(
#547000
b101 ?
b110 @
1(
#548000
0(
#549000
b101 @
b100 ?
1(
#550000
0(
#551000
15
b11 ?
b100 @
1(
#552000
0(
#553000
b11 @
05
b10 ?
b0 :
b111110110 H
1(
#554000
0(
#555000
b1 ?
b10 @
1(
#556000
0(
#557000
b1 @
18
b0 ?
1(
#558000
0(
#559000
08
b111 ?
17
b0 @
1(
#560000
0(
#561000
07
b111 @
b11 ;
b111101101 I
b110 ?
1(
#562000
0(
#563000
b101 ?
b110 @
1(
#564000
0(
#565000
b101 @
b100 ?
1(
#566000
0(
#567000
15
b11 ?
b100 @
1(
#568000
0(
#569000
b11 @
05
b10 ?
16
b1111 :
b111111011 H
1(
#570000
0(
#571000
0&
1'
1J
b11111011 $
b11111011 3
b11111011 D
1G
b1 ?
b10 @
1(
#572000
0(
#573000
b1 @
18
b0 ?
1(
#574000
0(
#575000
08
b111 ?
17
b0 @
1(
#576000
0(
#577000
0!
07
b111 @
b100 ;
b111110110 I
b110 ?
1(
#577100
0+
#578000
0(
#579000
11
14
b101 ?
b10 F
b110 @
1(
#580000
0(
#581000
04
01
b101 @
b0 F
b111 ?
06
b1001 :
1(
#582000
0(
#583000
0G
b110 ?
b100 @
1(
#584000
0(
#585000
b11 @
b101 ?
1(
#586000
0(
#587000
b100 ?
b10 @
1(
#588000
0(
#589000
b1 @
15
b11 ?
1(
#590000
0(
#591000
b1000 :
b11111101 H
05
b10 ?
17
b0 @
1(
#592000
0(
#593000
1!
07
b111 @
b101 ;
b111111011 I
b1 ?
1(
#593100
1+
#594000
0(
#595000
14
18
b0 ?
b1 F
b110 @
1(
#596000
0(
#597000
04
b101 @
b11 F
08
b111 ?
1(
#598000
0(
#599000
b110 ?
b100 @
1(
#600000
0(
#601000
b11 @
b101 ?
1(
#602000
0(
#603000
b100 ?
b10 @
1(
#604000
0(
#605000
b1 @
15
b11 ?
1(
#606000
0(
#607000
b111 :
b101111110 H
05
b10 ?
17
b0 @
1(
#608000
0(
#609000
07
b111 @
b110 ;
b111111101 I
b1 ?
1(
#610000
0(
#611000
18
b0 ?
b110 @
1(
#612000
0(
#613000
b101 @
08
b111 ?
1(
#614000
0(
#615000
b110 ?
b100 @
1(
#616000
0(
#617000
b11 @
b101 ?
1(
#618000
0(
#619000
b100 ?
b10 @
1(
#620000
0(
#621000
b1 @
15
b11 ?
1(
#622000
0(
#623000
b110 :
b110111111 H
05
b10 ?
17
b0 @
1(
#624000
0(
#625000
0!
07
b111 @
b111 ;
b111111110 I
b1 ?
1(
#625100
0+
#626000
0(
#627000
11
14
18
b0 ?
b10 F
b110 @
1(
#628000
0(
#629000
04
01
b101 @
b0 F
08
b111 ?
1(
#630000
0(
#631000
b110 ?
b100 @
1(
#632000
0(
#633000
b11 @
b101 ?
1(
#634000
0(
#635000
b100 ?
b10 @
1(
#636000
0(
#637000
b1 @
15
b11 ?
1(
#638000
0(
#639000
b101 :
b11011111 H
05
b10 ?
17
b0 @
1(
#640000
0(
#641000
1!
07
b111 @
b1000 ;
b111111111 I
b1 ?
1(
#641100
1+
#642000
0(
#643000
14
18
b0 ?
b1 F
b110 @
1(
#644000
0(
#645000
04
b101 @
b11 F
08
b111 ?
1(
#646000
0(
#647000
b110 ?
b100 @
1(
#648000
0(
#649000
b11 @
b101 ?
1(
#650000
0(
#651000
b100 ?
b10 @
1(
#652000
0(
#653000
b1 @
15
b11 ?
1(
#654000
0(
#655000
b100 :
b101101111 H
05
b10 ?
17
b0 @
1(
#656000
0(
#657000
07
b111 @
b1001 ;
b1 ?
1(
#658000
0(
#659000
18
b0 ?
b110 @
1(
#659800
1*
#660000
0(
#661000
b101 @
08
b111 ?
0'
1(
#661800
0*
#662000
0(
#663000
b110 ?
b100 @
1(
#664000
0(
#665000
b11 @
b101 ?
1(
#666000
0(
#667000
b100 ?
b10 @
1(
#668000
0(
#669000
b1 @
15
b11 ?
1(
#670000
0(
#671000
b11 :
b110110111 H
05
b10 ?
17
b0 @
1(
#672000
0(
#673000
1#
12
07
b111 @
1E
b1010 ;
b1 ?
1(
#674000
0(
#675000
0#
02
18
b0 ?
b11 <
1M
0"
b1101100 L
b110 @
1(
#676000
0(
#677000
17
b0 @
1A
0M
08
b111 ?
1(
#678000
0(
#679000
0!
b110 ?
b0 ;
b101101100 I
1"
0E
0A
07
b111 @
1(
#679100
0+
#680000
0(
#681000
11
14
b110 @
b10 F
b101 ?
1(
#682000
0(
#683000
04
01
b111 ?
b0 F
b101 @
1(
#684000
0(
#685000
b100 @
b110 ?
1(
#686000
0(
#687000
b101 ?
b11 @
1(
#688000
0(
#689000
b10 @
b100 ?
1(
#690000
0(
#691000
15
b11 ?
b1 @
1(
#692000
0(
#693000
17
b0 @
05
b10 ?
b10 :
b11011011 H
1(
#694000
0(
#695000
b1 ?
b1 ;
b110110110 I
07
b111 @
1(
#696000
0(
#697000
b110 @
18
b0 ?
1(
#698000
0(
#699000
08
b111 ?
b101 @
1(
#700000
0(
#701000
b100 @
b110 ?
1(
#702000
0(
#703000
b101 ?
b11 @
1(
#704000
0(
#705000
b10 @
b100 ?
1(
#706000
0(
#707000
15
b11 ?
b1 @
1(
#708000
0(
#709000
17
b0 @
05
b10 ?
b1 :
b1101101 H
1(
#710000
0(
#711000
1!
b1 ?
b10 ;
b111011011 I
07
b111 @
1(
#711100
1+
#712000
0(
#713000
14
b110 @
b1 F
18
b0 ?
1(
#714000
0(
#715000
04
08
b111 ?
b11 F
b101 @
1(
#716000
0(
#717000
b100 @
b110 ?
1(
#718000
0(
#719000
b101 ?
b11 @
1(
#720000
0(
#721000
b10 @
b100 ?
1(
#722000
0(
#723000
15
b11 ?
b1 @
1(
#724000
0(
#725000
17
b0 @
05
b10 ?
b0 :
b100110110 H
1(
#726000
0(
#727000
b1 ?
b11 ;
b111101101 I
07
b111 @
1(
#728000
0(
#729000
b110 @
18
b0 ?
1(
#730000
0(
#731000
08
b111 ?
b101 @
1(
#732000
0(
#733000
b100 @
b110 ?
1(
#734000
0(
#735000
b101 ?
b11 @
1(
#736000
0(
#737000
b10 @
b100 ?
1(
#738000
0(
#739000
15
b11 ?
b1 @
1(
#740000
0(
#741000
17
b0 @
05
b10 ?
16
b1111 :
b110011011 H
1(
#742000
0(
#743000
0!
1'
b10011011 $
b10011011 3
b10011011 D
1G
b1 ?
b100 ;
b111110110 I
07
b111 @
1(
#743100
0+
#744000
0(
#745000
11
14
b110 @
b10 F
18
b0 ?
1(
#746000
0(
#747000
04
01
06
b1001 :
08
b111 ?
b0 F
b101 @
1(
#748000
0(
#749000
b100 @
b110 ?
0G
1(
#750000
0(
#751000
b101 ?
b11 @
1(
#752000
0(
#753000
b10 @
b100 ?
1(
#754000
0(
#755000
15
b11 ?
b1 @
1(
#756000
0(
#757000
17
b0 @
05
b10 ?
b1000 :
b11001101 H
1(
#758000
0(
#759000
1!
b1 ?
b101 ;
b111111011 I
07
b111 @
1(
#759100
1+
#760000
0(
#761000
14
b110 @
b1 F
18
b0 ?
1(
#762000
0(
#763000
04
08
b111 ?
b11 F
b101 @
1(
#764000
0(
#765000
b100 @
b110 ?
1(
#766000
0(
#767000
b101 ?
b11 @
1(
#768000
0(
#769000
b10 @
b100 ?
1(
#770000
0(
#771000
15
b11 ?
b1 @
1(
#772000
0(
#773000
17
b0 @
05
b10 ?
b111 :
b101100110 H
1(
#774000
0(
#775000
b1 ?
b110 ;
b111111101 I
07
b111 @
1(
#776000
0(
#777000
b110 @
18
b0 ?
1(
#778000
0(
#779000
08
b111 ?
b101 @
1(
#780000
0(
#781000
b100 @
b110 ?
1(
#782000
0(
#783000
b101 ?
b11 @
1(
#784000
0(
#785000
b10 @
b100 ?
1(
#786000
0(
#787000
15
b11 ?
b1 @
1(
#788000
0(
#789000
17
b0 @
05
b10 ?
b110 :
b110110011 H
1(
#790000
0(
#791000
0!
b1 ?
b111 ;
b111111110 I
07
b111 @
1(
#791100
0+
#792000
0(
#793000
11
14
b110 @
b10 F
18
b0 ?
1(
#794000
0(
#795000
04
01
08
b111 ?
b0 F
b101 @
1(
#796000
0(
#797000
b100 @
b110 ?
1(
#798000
0(
#799000
b101 ?
b11 @
1(
#800000
0(
#801000
b10 @
b100 ?
1(
#802000
0(
#803000
15
b11 ?
b1 @
1(
#804000
0(
#805000
17
b0 @
05
b10 ?
b101 :
b11011001 H
1(
#806000
0(
#807000
1!
b1 ?
b1000 ;
b111111111 I
07
b111 @
1(
#807100
1+
#808000
0(
#809000
14
b110 @
b1 F
18
b0 ?
1(
#810000
0(
#811000
04
08
b111 ?
b11 F
b101 @
1(
#812000
0(
#813000
b100 @
b110 ?
1(
#814000
0(
#815000
b101 ?
b11 @
1(
#816000
0(
#817000
b10 @
b100 ?
1(
#818000
0(
#819000
15
b11 ?
b1 @
1(
#820000
0(
#821000
17
b0 @
05
b10 ?
b100 :
b101101100 H
1(
#821800
1*
#822000
0(
#823000
0'
b1 ?
b1001 ;
07
b111 @
1(
#823800
0*
#824000
0(
#825000
b110 @
18
b0 ?
1(
#826000
0(
#827000
08
b111 ?
b101 @
1(
#828000
0(
#829000
b100 @
b110 ?
1(
#830000
0(
#831000
b101 ?
b11 @
1(
#832000
0(
#833000
b10 @
b100 ?
1(
#834000
0(
#835000
15
b11 ?
b1 @
1(
#836000
0(
