laRVa_DC/tb.vcd
$date
	Mon Oct 27 13:21:19 2025
$end
$version
	Icarus Verilog
$end
$timescale
	1s
$end
$scope module tb $end
$var reg 1 ! clk $end
$var reg 1 " resetb $end
$var reg 1 # rxd $end
$scope module sys1 $end
$var wire 1 $ cclk $end
$var wire 1 ! clk $end
$var wire 1 % fssb $end
$var wire 1 & irq $end
$var wire 1 ' irqcs $end
$var wire 30 ( ivector [31:2] $end
$var wire 1 ) miso $end
$var wire 1 * mosi $end
$var wire 1 + outcs $end
$var wire 4 , owr [3:0] $end
$var wire 1 - reset $end
$var wire 1 # rxd $end
$var wire 32 . salida [31:0] $end
$var wire 1 / sck $end
$var wire 1 0 uartcs $end
$var wire 1 1 urd $end
$var wire 1 2 uwrbaud $end
$var wire 1 3 uwrtx $end
$var wire 2 4 vecn [1:0] $end
$var wire 8 5 uart_do [7:0] $end
$var wire 1 6 txd $end
$var wire 1 7 trap $end
$var wire 1 8 thre $end
$var wire 1 9 tend $end
$var wire 1 : ove $end
$var wire 4 ; mwe [3:0] $end
$var wire 32 < mdo [31:0] $end
$var wire 3 = irqpen [2:0] $end
$var wire 1 > iramcs $end
$var wire 1 ? iocs $end
$var wire 1 @ fe $end
$var wire 1 A dv $end
$var wire 32 B cdo [31:0] $end
$var wire 32 C ca [31:0] $end
$var reg 1 D IGPO $end
$var reg 32 E cdi [31:0] $end
$var reg 32 F iodo [31:0] $end
$var reg 3 G irqen [2:0] $end
$var reg 32 H outreg [31:0] $end
$var reg 32 I tcount [31:0] $end
$scope module cpu $end
$var wire 1 J LOAD_sign $end
$var wire 30 K PC [31:2] $end
$var wire 30 L PC0 [31:2] $end
$var wire 30 M PC1 [31:2] $end
$var wire 30 N PCimm [31:2] $end
$var wire 32 O aluIn2 [31:0] $end
$var wire 32 P aluOut [31:0] $end
$var wire 1 $ clk $end
$var wire 1 Q csrrw_mepc $end
$var wire 1 R ebreak $end
$var wire 1 S ecall $end
$var wire 1 T ireti $end
$var wire 1 & irq $end
$var wire 1 U irqstart $end
$var wire 1 V issub $end
$var wire 30 W ivector [31:2] $end
$var wire 1 X jump $end
$var wire 1 Y left_sh $end
$var wire 1 Z mret $end
$var wire 1 [ opauipc $end
$var wire 1 \ opbranch $end
$var wire 1 ] opimm $end
$var wire 1 ^ opjal $end
$var wire 1 _ opjalr $end
$var wire 1 ` opload $end
$var wire 1 a oplui $end
$var wire 1 b opreg $end
$var wire 1 c opstore $end
$var wire 1 d opsystem $end
$var wire 32 e rdata [31:0] $end
$var wire 32 f regsD [31:0] $end
$var wire 1 g regswr $end
$var wire 1 - reset $end
$var wire 1 h signed_sh $end
$var wire 1 7 trap $end
$var wire 4 i wstrb [3:0] $end
$var wire 32 j wdata [31:0] $end
$var wire 32 k sh_t5 [31:0] $end
$var wire 32 l sh_t4 [31:0] $end
$var wire 32 m sh_t3 [31:0] $end
$var wire 32 n sh_t2 [31:0] $end
$var wire 32 o sh_t1 [31:0] $end
$var wire 32 p sh_out [31:0] $end
$var wire 32 q sh_in [31:0] $end
$var wire 5 r rs2 [4:0] $end
$var wire 5 s rs1 [4:0] $end
$var wire 32 t regsQ2 [31:0] $end
$var wire 32 u regsQ1 [31:0] $end
$var wire 5 v rd [4:0] $end
$var wire 8 w prlist [7:0] $end
$var wire 1 x predicate $end
$var wire 7 y opcode [6:0] $end
$var wire 1 z mem_halfwordAccess $end
$var wire 1 { mem_byteAccess $end
$var wire 32 | ldstaddr [31:0] $end
$var wire 7 } funct7 [6:0] $end
$var wire 3 ~ funct3 [2:0] $end
$var wire 32 !" aluIn1 [31:0] $end
$var wire 33 "" aluAdder [32:0] $end
$var wire 30 #" addr [31:2] $end
$var wire 32 $" Uimm [31:0] $end
$var wire 32 %" Simm [31:0] $end
$var wire 30 &" PCnext [31:2] $end
$var wire 30 '" PCadd2 [31:2] $end
$var wire 30 (" PCadd1 [31:2] $end
$var wire 1 )" LTU $end
$var wire 1 *" LT $end
$var wire 16 +" LOAD_halfword [15:0] $end
$var wire 32 ," LOAD_data [31:0] $end
$var wire 8 -" LOAD_byte [7:0] $end
$var wire 32 ." Jimm [31:0] $end
$var wire 32 /" Iimm [31:0] $end
$var wire 1 0" EQ $end
$var wire 32 1" Bimm [31:0] $end
$var reg 32 2" IR [31:0] $end
$var reg 30 3" PCci [31:2] $end
$var reg 1 4" mmode $end
$var reg 1 5" opvalid $end
$var reg 1 6" q0 $end
$var integer 32 7" i [31:0] $end
$upscope $end
$scope module ram0 $end
$var wire 11 8" addr [10:0] $end
$var wire 1 9" clk $end
$var wire 32 :" data_read [31:0] $end
$var wire 32 ;" data_write [31:0] $end
$var wire 1 > re $end
$var wire 4 <" wrlanes [3:0] $end
$var reg 32 =" data_out [31:0] $end
$upscope $end
$scope module uart0 $end
$var wire 1 $ clk $end
$var wire 16 >" d [15:0] $end
$var wire 1 ?" falling $end
$var wire 1 @ fe $end
$var wire 8 @" q [7:0] $end
$var wire 1 1 rd $end
$var wire 1 A" resinc $end
$var wire 1 # rxd $end
$var wire 1 9 tend $end
$var wire 1 2 wrbaud $end
$var wire 1 3 wrtx $end
$var wire 1 6 txd $end
$var wire 1 B" shift $end
$var wire 1 C" rxst $end
$var wire 1 D" clko $end
$var wire 1 E" clki0 $end
$var reg 4 F" cbrx [3:0] $end
$var reg 4 G" cntbit [3:0] $end
$var reg 12 H" divider [11:0] $end
$var reg 12 I" divrx [11:0] $end
$var reg 12 J" divtx [11:0] $end
$var reg 1 A dv $end
$var reg 1 : ove $end
$var reg 8 K" rbr [7:0] $end
$var reg 1 L" rdy $end
$var reg 2 M" rrxd [1:0] $end
$var reg 1 N" rxst0 $end
$var reg 9 O" shrx [8:0] $end
$var reg 9 P" shtx [8:0] $end
$var reg 1 Q" stopb $end
$var reg 8 R" thr [7:0] $end
$var reg 1 8 thre $end
$upscope $end
$upscope $end
$upscope $end
$scope module tb $end
$scope module sys1 $end
$scope module cpu $end
$var reg 32 S" \regs[12] [31:0] $end
$upscope $end
$upscope $end
$upscope $end
$enddefinitions $end
#0
$dumpvars
b0 S"
bx R"
xQ"
b111111111 P"
bx O"
xN"
b0 M"
1L"
bx K"
b0 J"
b0 I"
b0 H"
bx G"
b1111 F"
1E"
1D"
1C"
1B"
0A"
bx @"
0?"
b0 >"
bx ="
b0 <"
b0 ;"
bx :"
19"
b0 8"
b10000 7"
06"
05"
04"
bx 3"
bx 2"
bx0 1"
10"
bx /"
bx0 ."
bx -"
bx ,"
bx +"
0*"
0)"
b1 ("
bx '"
b1 &"
bx %"
bx000000000000 $"
b0 #"
b0 ""
b0 !"
bx ~
bx }
bx |
x{
xz
bx y
xx
b10100001 w
b0 v
b0 u
b0 t
b0 s
b0 r
b0 q
b0 p
b0 o
b0 n
b0 m
b0 l
b0 k
b0 j
b0 i
0h
0g
b0 f
bx e
0d
0c
0b
0a
0`
0_
0^
0]
0\
0[
0Z
0Y
0X
bx W
0V
0U
0T
0S
0R
0Q
b0 P
b0 O
b0 N
b0 M
b0 L
b0 K
xJ
b0 I
bx H
b0 G
bx F
bx E
0D
b0zz C
b0 B
0A
x@
0?
1>
b0 =
bx <
b0 ;
0:
19
18
07
16
bx 5
bx 4
03
02
01
00
z/
bx .
1-
b0 ,
0+
z*
z)
bx (
0'
0&
z%
0$
1#
0"
0!
$end
#5
1A"
b0 '"
b0 3"
b1 M"
1N"
b1 I
09"
1$
1!
#10
0J
b0x0000000000000001101111 ,"
b1101111 -"
b1101111 +"
b10000000000000001101111 E
b10000000000000001101111 e
b10000000000000001101111 <
b10000000000000001101111 :"
b10000000000000001101111 ="
19"
0$
0!
#15
b1101111 ,"
0A"
1{
0z
b0 |
b1101111 y
1x
b0 ~
b0 }
b10000000000000000000000 $"
b100 /"
b0 %"
b0 1"
b100 ."
b11 M"
b10000000000000001101111 2"
b10 I
09"
1$
1!
#20
19"
0$
0!
#25
b11 I
09"
1$
1!
#30
19"
0$
0!
#35
b100 I
09"
1$
1!
#40
19"
0$
0!
#45
b101 I
09"
1$
1!
#50
19"
0$
0!
#55
b110 I
09"
1$
1!
#60
19"
0$
0!
#65
b111 I
09"
1$
1!
#70
19"
0$
0!
#75
b1000 I
09"
1$
1!
#77
0-
1"
#80
19"
0$
0!
#85
bx0x110 F
1g
b100 f
1X
b1 '"
b1 N
b1 8"
b1 &"
b1zz C
b1 #"
b100 r
1^
bx M
b10 ("
b1 K
b1 L
15"
b1001 I
09"
1$
1!
#90
b110111 ,"
b110111 -"
b10100110111 +"
b11100000000000000000010100110111 E
b11100000000000000000010100110111 e
b11100000000000000000010100110111 <
b11100000000000000000010100110111 :"
b11100000000000000000010100110111 ="
19"
0$
0!
#95
0g
b0 f
0X
b0 N
b10 &"
b11111111111111111111111000001010 |
b0 r
0^
b110111 y
b1110000 }
b11100000000000000000000000000000 $"
b11111111111111111111111000000000 /"
b11111111111111111111111000001010 %"
b11111111111111111111011000001010 1"
b11111111111100000000011000000000 ."
05"
b1 '"
b1 3"
b11100000000000000000010100110111 2"
b1010 I
09"
1$
1!
#100
19"
0$
0!
#105
bx F
b11100000000000000000000000000000 f
b11100000000000000000000000000000 P
0x
b10100010 w
00"
b11100000000000000000000000000000 ""
1g
b11100000000000000000000000000000 O
b10 8"
b11 &"
b10zz C
b10 #"
b1010 v
1a
b11 ("
b10 K
b10 L
15"
b1011 I
09"
1$
1!
#110
b10011 ,"
b10011 -"
b10100010011 +"
b1110000001010000010100010011 E
b1110000001010000010100010011 e
b1110000001010000010100010011 <
b1110000001010000010100010011 :"
b1110000001010000010100010011 ="
19"
0$
0!
#115
bx0x110 F
b11100000000000000000000000000000 p
b11100000000000000000000000000000 k
b11100000000000000000000011100000 P
b11100000000000000000000000000000 l
b11100000000000000000000000000000 m
b10010010 w
1*"
b11100000000000000000000000000000 n
b11100000000000000000000000000000 o
b11100000000000000000000011100000 f
b11100000000000000000000000000000 q
b11100000000000000000000000000000 !"
1g
b11100000000000000000000000000000 u
b11100000000000000000000011100000 ""
b11100000 O
b11 8"
b100 &"
1]
0a
b1010 s
b11100000000000000000000011101010 |
b11zz C
b11 #"
b10011 y
b111 }
b1110000001010000000000000000 $"
b11100000 /"
b11101010 %"
b11101010 1"
b1010000000011100000 ."
b100 ("
b11 K
b11 L
b10 '"
b10 3"
b1110000001010000010100010011 2"
b1100 I
09"
1$
1!
#120
1J
b11111111111111111111111110010011 ,"
b10010011 -"
b10110010011 +"
b10000000000010110010011 E
b10000000000010110010011 e
b10000000000010110010011 <
b10000000000010110010011 :"
b10000000000010110010011 ="
19"
0$
0!
#125
bx F
b100 f
b100 P
b0 p
b0 k
b10100010 w
0*"
b0 l
b0 m
b0 n
b0 o
b100 O
b0 q
b100 ""
b0 !"
b100 8"
b101 &"
b1011 v
b0 s
b100 r
b100zz C
b100 #"
b1011 |
b0 u
b0 }
b10000000000000000000000 $"
b100 /"
b1011 %"
b100000001010 1"
b100 ."
b101 ("
b100 K
b100 L
b10000000000010110010011 2"
b11 '"
b11 3"
b1101 I
09"
1$
1!
#130
0J
b100011 ,"
b100011 -"
b10000000100011 +"
b101101010010000000100011 E
b101101010010000000100011 e
b101101010010000000100011 <
b101101010010000000100011 :"
b101101010010000000100011 ="
19"
0$
0!
#135
xJ
bx000 E
bx000 e
bx000 F
b11100000000000000000000011100000 p
b11100000000000000000000011100000 k
b11100000000000000000000011100000 l
b11100000000000000000000011100000 m
b1 P
b11100000000000000000000011100000 n
0g
b0 f
b10010010 w
1*"
b11100000000000000000000011100000 o
1'
bx000 +"
bx000 -"
b11100000000000000000000011100000 q
0>
1?
b11100000000000000000000011100000 !"
b100 >"
b11100000000000000000000011100000 ""
b100 B
b100 j
b100 ;"
b0 O
b0 <"
b11100000000000000000000011100000 u
b100 t
b1111 ;
b1111 i
bx000 ,"
b111000 8"
b101 &"
0]
1c
0{
b0 v
b1010 s
b1011 r
b11100000000000000000000011100000 |
b111000000000000000000000111000zz C
b111000000000000000000000111000 #"
b100011 y
b10 ~
b101101010010000000000000 $"
b1011 /"
b0 %"
b0 1"
b1010010100000001010 ."
b101 ("
b101 K
b101 L
b100 '"
b100 3"
b101101010010000000100011 2"
b1110 I
09"
1$
1!
#140
19"
0$
0!
#145
0J
b100011 -"
b0x0xx0x0x00x0000000100011 ,"
b10000000100011 +"
b101101010010000000100011 E
b101101010010000000100011 e
bx0x110 F
b0 p
b0 k
b0 l
b0 m
b0 n
0*"
b0 o
b10100001 w
10"
b0 q
b0 ""
b0 !"
b0 >"
0'
b110 &"
b0 B
b0 j
b0 ;"
1>
0?
b101 8"
b0 P
b0 u
b0 t
b101zz C
b101 #"
b110 ("
b0 ;
b0 i
x{
xz
bx |
b0 s
b0 r
0c
bx000 y
xx
bx ~
bx }
bx000000000000 $"
bx /"
bx %"
bx0 1"
bx0 ."
b100 G
05"
bx000 2"
b101 '"
b101 3"
b1111 I
09"
1$
1!
#150
xJ
b10010111 -"
bx10010111 ,"
b10110010111 +"
b10110010111 E
b10110010111 e
b10110010111 <
b10110010111 :"
b10110010111 ="
19"
0$
0!
#155
bx F
b10100 f
b10100 P
b10100 p
b10100 k
b10100 l
b10100 m
b10100 n
b10100 o
b11111111111111111111111110010111 ,"
b10100010 w
00"
b10100 q
1J
1g
b10100 ""
b10100 !"
b110 8"
b111 &"
1{
0z
b1011 |
b1011 v
1[
b110zz C
b110 #"
b10111 y
0x
b0 ~
b0 }
b0 $"
b0 /"
b1011 %"
b100000001010 1"
b0 ."
15"
b111 ("
b110 K
b110 L
b10110010111 2"
b10000 I
09"
1$
1!
#160
b11111111111111111111111110010011 ,"
b10010011 -"
b1000010110010011 +"
b10010001011000010110010011 E
b10010001011000010110010011 e
b10010001011000010110010011 <
b10010001011000010110010011 :"
b10010001011000010110010011 ="
19"
0$
0!
#165
bx0x110 F
b111000 P
b1 p
b111000 f
b1 k
b1 l
b1 m
b10100 n
1g
b10100 u
b10100 o
b100100 O
b10100 q
b111 8"
b1000 &"
1]
0[
b1011 s
b100 r
b111111 |
b111000 ""
b10100 !"
b111zz C
b111 #"
b10011 y
b1 }
b10010001011000000000000000 $"
b100100 /"
b101011 %"
b100000101010 1"
b1011000000000100100 ."
b1000 ("
b111 K
b111 L
b10010001011000010110010011 2"
b110 '"
b110 3"
b10001 I
09"
1$
1!
#170
0J
b100011 ,"
b100011 -"
b10111000100011 +"
b101101010010111000100011 E
b101101010010111000100011 e
b101101010010111000100011 <
b101101010010111000100011 :"
b101101010010111000100011 ="
19"
0$
0!
#175
xJ
bx100 E
bx100 e
bx100 F
b1 P
0g
b0 f
b10010010 w
1*"
1'
bx100 +"
bx100 -"
b1110 p
b1110 m
0>
1?
b1110 l
b1110 k
b111000 >"
b11100000 n
b111000 B
b111000 j
b111000 ;"
b11100 O
b1110000000000000 o
b0 <"
b111000 t
b11100000000000000000000011100000 q
b1111 ;
b1111 i
bx100 ,"
b11100000000000000000000011111100 ""
b11100000000000000000000011100000 !"
b111111 8"
b1000 &"
0]
1c
0{
b11100 v
b1010 s
b1011 r
b111000000000000000000000111111zz C
b111000000000000000000000111111 #"
b100011 y
b10 ~
b0 }
b101101010010000000000000 $"
b1011 /"
b11100 %"
b11100 1"
b1010010100000001010 ."
b11100000000000000000000011111100 |
b11100000000000000000000011100000 u
b1000 ("
b1000 K
b1000 L
b111 '"
b111 3"
b101101010010111000100011 2"
b10010 I
09"
1$
1!
#180
19"
0$
0!
#185
0J
b100011 -"
b0x0xx0x0x00x0xxx000100011 ,"
b10111000100011 +"
b101101010010111000100011 E
b101101010010111000100011 e
bx F
b0 p
b0 k
0*"
b0 l
b0 q
b10100001 w
10"
b0 o
b0 n
b0 m
b0 !"
b0 >"
0'
b1001 &"
b0 ""
b0 B
b0 j
b0 ;"
1>
0?
b1000 8"
b0 P
b0 O
b0 u
b0 t
b1000zz C
b1000 #"
b1001 ("
b0 ;
b0 i
x{
xz
bx |
b0 v
b0 s
b0 r
0c
bx100 y
xx
bx ~
bx }
bx000000000000 $"
bx /"
bx %"
bx0 1"
bx0 ."
05"
bx100 2"
b1000 '"
b1000 3"
b10011 I
09"
1$
1!
#190
b110111 -"
bx000000000000000000x0x00110111 ,"
b10100110111 +"
b11100000000000000000010100110111 E
b11100000000000000000010100110111 e
b11100000000000000000010100110111 <
b11100000000000000000010100110111 :"
b11100000000000000000010100110111 ="
19"
0$
0!
#195
b11100000000000000000000000000000 f
b11100000000000000000000000000000 P
b10100010 w
00"
b11100000000000000000000000000000 ""
1g
b11100000000000000000000000000000 O
b110111 ,"
b1001 8"
b1010 &"
1{
0z
b11111111111111111111111000001010 |
b1010 v
1a
b1001zz C
b1001 #"
b110111 y
0x
b0 ~
b1110000 }
b11100000000000000000000000000000 $"
b11111111111111111111111000000000 /"
b11111111111111111111111000001010 %"
b11111111111111111111011000001010 1"
b11111111111100000000011000000000 ."
15"
b1010 ("
b1001 K
b1001 L
b11100000000000000000010100110111 2"
b10100 I
09"
1$
1!
#200
b10011 ,"
b10011 -"
b10100010011 +"
b100000001010000010100010011 E
b100000001010000010100010011 e
b100000001010000010100010011 <
b100000001010000010100010011 :"
b100000001010000010100010011 ="
19"
0$
0!
#205
b11100000000000000000000000000000 p
b11100000000000000000000000000000 k
b11100000000000000000000001000000 P
b11100000000000000000000000000000 l
b11100000000000000000000000000000 m
b10010010 w
1*"
b11100000000000000000000000000000 n
b11100000000000000000000000000000 o
b11100000000000000000000001000000 f
b11100000000000000000000000000000 q
b11100000000000000000000000000000 !"
1g
b11100000000000000000000000000000 u
b11100000000000000000000001000000 ""
b1000000 O
b1010 8"
b1011 &"
1]
0a
b1010 s
b11100000000000000000000001001010 |
b1010zz C
b1010 #"
b10011 y
b10 }
b100000001010000000000000000 $"
b1000000 /"
b1001010 %"
b1001010 1"
b1010000000001000000 ."
b1011 ("
b1010 K
b1010 L
b100000001010000010100010011 2"
b1001 '"
b1001 3"
b10101 I
09"
1$
1!
#210
1J
b11111111111111111111111110110111 ,"
b10110111 -"
b1011010110110111 +"
b10100101010101011011010110110111 E
b10100101010101011011010110110111 e
b10100101010101011011010110110111 <
b10100101010101011011010110110111 :"
b10100101010101011011010110110111 ="
19"
0$
0!
#215
b10100101010101011011000000000000 f
b10100101010101011011000000000000 P
b10110111 -"
b0 p
b0 l
b0 k
b0 m
b0 n
b10100101010101011011000000000000 O
b10100010 w
0*"
b0 o
b0 q
b10100101010101011011010110110111 ,"
b10100101010101011011000000000000 ""
b0 !"
b1011 8"
b1100 &"
0]
1a
0{
b1011 v
b1011 s
b10101 r
b1011zz C
b1011 #"
b110111 y
b11 ~
b1010010 }
b10100101010101011011000000000000 $"
b11111111111111111111101001010101 /"
b11111111111111111111101001001011 %"
b11111111111111111111101001001010 1"
b11111111111101011011101001010100 ."
b11111111111111111111101010000011 |
b111000 u
b1100 ("
b1011 K
b1011 L
b1010 '"
b1010 3"
b10100101010101011011010110110111 2"
b10110 I
09"
1$
1!
#220
b10010011 -"
b10101010101001011000010110010011 ,"
b1000010110010011 +"
b10101010101001011000010110010011 E
b10101010101001011000010110010011 e
b10101010101001011000010110010011 <
b10101010101001011000010110010011 :"
b10101010101001011000010110010011 ="
19"
0$
0!
#225
b10100101 -"
b1010101010100101 +"
b10100101010101011010101010101010 P
b1010010101010101101100 p
b1010010101010101101100 k
b1010010101010101101100 l
b10100101010101011010101010101010 f
b101001010101010110110000 m
b101001010101010110110000 n
b1000000 >"
1g
1*"
b10100101010101011011000000000000 o
b10000000000000001000000 B
b10000000000000001000000 j
b10000000000000001000000 ;"
b1010010 w
1)"
b10100101010101011011000000000000 q
b11100000000000000000000001000000 t
b110100101010101011010101010101010 ""
b10100101010101011011000000000000 !"
b11111111111111111111111110100101 ,"
b11111111111111111111101010101010 O
b1100 8"
b1101 &"
1]
0a
1{
b1010 r
b1100zz C
b1100 #"
b10100101010101011010101010101011 |
b10100101010101011011000000000000 u
b10011 y
b0 ~
b1010101 }
b10101010101001011000000000000000 $"
b11111111111111111111101010101010 /"
b11111111111111111111101010101011 %"
b11111111111111111111101010101010 1"
b11111111111101011000001010101010 ."
b1101 ("
b1100 K
b1100 L
b10101010101001011000010110010011 2"
b1011 '"
b1011 3"
b10111 I
09"
1$
1!
#230
b11111111111111111111111110110101 ,"
b10110101 -"
b10110101 +"
b101101010010000000100011 E
b101101010010000000100011 e
b101101010010000000100011 <
b101101010010000000100011 :"
b101101010010000000100011 ="
19"
0$
0!
#235
bx E
bx e
b11100000000000000000000001000000 l
0g
b0 f
b1111 ,
b1 P
1+
b11100000000000000000000001000000 p
b11100000000000000000000001000000 m
1?
b10010010 w
0)"
b11100000000000000000000001000000 k
bx -"
b11100000000000000000000001000000 n
b1010101010101010 >"
0>
b0 O
bx +"
b10100101010101011010101010101010 B
b10100101010101011010101010101010 j
b10100101010101011010101010101010 ;"
b11100000000000000000000001000000 o
b0 <"
xJ
b10100101010101011010101010101010 t
b11100000000000000000000001000000 q
b1111 ;
b1111 i
bx ,"
b11100000000000000000000001000000 ""
b11100000000000000000000001000000 !"
b10000 8"
b1101 &"
0]
1c
0{
b0 v
b1010 s
b1011 r
b111000000000000000000000010000zz C
b111000000000000000000000010000 #"
b100011 y
b10 ~
b0 }
b101101010010000000000000 $"
b1011 /"
b0 %"
b0 1"
b1010010100000001010 ."
b11100000000000000000000001000000 |
b11100000000000000000000001000000 u
b1101 ("
b1101 K
b1101 L
b1100 '"
b1100 3"
b101101010010000000100011 2"
b11000 I
09"
1$
1!
#240
19"
0$
0!
#245
0J
b0x0xx0x0x00x0000000100011 ,"
b100011 -"
b10000000100011 +"
b101101010010000000100011 E
b101101010010000000100011 e
b0 p
b0 k
b0 l
b0 m
b0 n
0*"
b0 o
b10100001 w
10"
b0 q
b0 ""
b0 !"
b0 >"
0+
b1110 &"
b0 B
b0 j
b0 ;"
1>
0?
b1101 8"
b0 P
b0 u
b0 t
b1101zz C
b1101 #"
b1110 ("
b0 ,
b0 ;
b0 i
x{
xz
bx |
b0 s
b0 r
0c
bx y
xx
bx ~
bx }
bx000000000000 $"
bx /"
bx %"
bx0 1"
bx0 ."
05"
bx 2"
b1101 '"
b1101 3"
b11001 I
b10100101010101011010101010101010 .
b10100101010101011010101010101010 H
09"
1$
1!
#250
b1101111 -"
b1101111 ,"
b1101111 +"
b1101111 E
b1101111 e
b1101111 <
b1101111 :"
b1101111 ="
19"
0$
0!
#255
1g
b111000 f
1X
b1110 8"
b1101 &"
1{
0z
b0 |
1^
b1110zz C
b1110 #"
b1101111 y
1x
b0 ~
b0 }
b0 $"
b0 /"
b0 %"
b0 1"
b0 ."
15"
b1111 ("
b1110 K
b1110 L
b1101111 2"
b11010 I
09"
1$
1!
#260
b1110011 ,"
b1110011 -"
b1110011 +"
b110000001000000000000001110011 E
b110000001000000000000001110011 e
b110000001000000000000001110011 <
b110000001000000000000001110011 :"
b110000001000000000000001110011 ="
19"
0$
0!
#265
0g
b0 f
0X
b1101 8"
b1100000000 |
b1110 &"
b1101zz C
b1101 #"
0^
b1110011 y
b11000 }
b110000001000000000000000000000 $"
b1100000010 /"
b1100000000 %"
b1100000000 1"
b1100000010 ."
b1110 ("
b1101 K
b1101 L
05"
b110000001000000000000001110011 2"
b1110 '"
b1110 3"
b11011 I
09"
1$
1!
#270
b1101111 ,"
b1101111 -"
b1101111 +"
b1101111 E
b1101111 e
b1101111 <
b1101111 :"
b1101111 ="
19"
0$
0!
#275
1g
b111000 f
1X
b1110 8"
b1101 &"
b0 |
1^
b1110zz C
b1110 #"
b1101111 y
b0 }
b0 $"
b0 /"
b0 %"
b0 1"
b0 ."
15"
b1111 ("
b1110 K
b1110 L
b1101 '"
b1101 3"
b1101111 2"
b11100 I
09"
1$
1!
#280
b1110011 ,"
b1110011 -"
b1110011 +"
b110000001000000000000001110011 E
b110000001000000000000001110011 e
b110000001000000000000001110011 <
b110000001000000000000001110011 :"
b110000001000000000000001110011 ="
19"
0$
0!
#285
0g
b0 f
0X
b1101 8"
b1100000000 |
b1110 &"
b1101zz C
b1101 #"
0^
b1110011 y
b11000 }
b110000001000000000000000000000 $"
b1100000010 /"
b1100000000 %"
b1100000000 1"
b1100000010 ."
b1110 ("
b1101 K
b1101 L
05"
b110000001000000000000001110011 2"
b1110 '"
b1110 3"
b11101 I
09"
1$
1!
#290
b1101111 ,"
b1101111 -"
b1101111 +"
b1101111 E
b1101111 e
b1101111 <
b1101111 :"
b1101111 ="
19"
0$
0!
#295
1g
b111000 f
1X
b1110 8"
b1101 &"
b0 |
1^
b1110zz C
b1110 #"
b1101111 y
b0 }
b0 $"
b0 /"
b0 %"
b0 1"
b0 ."
15"
b1111 ("
b1110 K
b1110 L
b1101 '"
b1101 3"
b1101111 2"
b11110 I
09"
1$
1!
#300
b1110011 ,"
b1110011 -"
b1110011 +"
b110000001000000000000001110011 E
b110000001000000000000001110011 e
b110000001000000000000001110011 <
b110000001000000000000001110011 :"
b110000001000000000000001110011 ="
19"
0$
0!
#305
0g
b0 f
0X
b1101 8"
b1100000000 |
b1110 &"
b1101zz C
b1101 #"
0^
b1110011 y
b11000 }
b110000001000000000000000000000 $"
b1100000010 /"
b1100000000 %"
b1100000000 1"
b1100000010 ."
b1110 ("
b1101 K
b1101 L
05"
b110000001000000000000001110011 2"
b1110 '"
b1110 3"
b11111 I
09"
1$
1!
#310
b1101111 ,"
b1101111 -"
b1101111 +"
b1101111 E
b1101111 e
b1101111 <
b1101111 :"
b1101111 ="
19"
0$
0!
#315
1g
b111000 f
1X
b1110 8"
b1101 &"
b0 |
1^
b1110zz C
b1110 #"
b1101111 y
b0 }
b0 $"
b0 /"
b0 %"
b0 1"
b0 ."
15"
b1111 ("
b1110 K
b1110 L
b1101 '"
b1101 3"
b1101111 2"
b100000 I
09"
1$
1!
#320
b1110011 ,"
b1110011 -"
b1110011 +"
b110000001000000000000001110011 E
b110000001000000000000001110011 e
b110000001000000000000001110011 <
b110000001000000000000001110011 :"
b110000001000000000000001110011 ="
19"
0$
0!
#325
0g
b0 f
0X
b1101 8"
b1100000000 |
b1110 &"
b1101zz C
b1101 #"
0^
b1110011 y
b11000 }
b110000001000000000000000000000 $"
b1100000010 /"
b1100000000 %"
b1100000000 1"
b1100000010 ."
b1110 ("
b1101 K
b1101 L
05"
b110000001000000000000001110011 2"
b1110 '"
b1110 3"
b100001 I
09"
1$
1!
#330
b1101111 ,"
b1101111 -"
b1101111 +"
b1101111 E
b1101111 e
b1101111 <
b1101111 :"
b1101111 ="
19"
0$
0!
#335
1g
b111000 f
1X
b1110 8"
b1101 &"
b0 |
1^
b1110zz C
b1110 #"
b1101111 y
b0 }
b0 $"
b0 /"
b0 %"
b0 1"
b0 ."
15"
b1111 ("
b1110 K
b1110 L
b1101 '"
b1101 3"
b1101111 2"
b100010 I
09"
1$
1!
#340
b1110011 ,"
b1110011 -"
b1110011 +"
b110000001000000000000001110011 E
b110000001000000000000001110011 e
b110000001000000000000001110011 <
b110000001000000000000001110011 :"
b110000001000000000000001110011 ="
19"
0$
0!
#345
0g
b0 f
0X
b1101 8"
b1100000000 |
b1110 &"
b1101zz C
b1101 #"
0^
b1110011 y
b11000 }
b110000001000000000000000000000 $"
b1100000010 /"
b1100000000 %"
b1100000000 1"
b1100000010 ."
b1110 ("
b1101 K
b1101 L
05"
b110000001000000000000001110011 2"
b1110 '"
b1110 3"
b100011 I
09"
1$
1!
#350
b1101111 ,"
b1101111 -"
b1101111 +"
b1101111 E
b1101111 e
b1101111 <
b1101111 :"
b1101111 ="
19"
0$
0!
#355
1g
b111000 f
1X
b1110 8"
b1101 &"
b0 |
1^
b1110zz C
b1110 #"
b1101111 y
b0 }
b0 $"
b0 /"
b0 %"
b0 1"
b0 ."
15"
b1111 ("
b1110 K
b1110 L
b1101 '"
b1101 3"
b1101111 2"
b100100 I
09"
1$
1!
#360
b1110011 ,"
b1110011 -"
b1110011 +"
b110000001000000000000001110011 E
b110000001000000000000001110011 e
b110000001000000000000001110011 <
b110000001000000000000001110011 :"
b110000001000000000000001110011 ="
19"
0$
0!
#365
0g
b0 f
0X
b1101 8"
b1100000000 |
b1110 &"
b1101zz C
b1101 #"
0^
b1110011 y
b11000 }
b110000001000000000000000000000 $"
b1100000010 /"
b1100000000 %"
b1100000000 1"
b1100000010 ."
b1110 ("
b1101 K
b1101 L
05"
b110000001000000000000001110011 2"
b1110 '"
b1110 3"
b100101 I
09"
1$
1!
#370
b1101111 ,"
b1101111 -"
b1101111 +"
b1101111 E
b1101111 e
b1101111 <
b1101111 :"
b1101111 ="
19"
0$
0!
#375
1g
b111000 f
1X
b1110 8"
b1101 &"
b0 |
1^
b1110zz C
b1110 #"
b1101111 y
b0 }
b0 $"
b0 /"
b0 %"
b0 1"
b0 ."
15"
b1111 ("
b1110 K
b1110 L
b1101 '"
b1101 3"
b1101111 2"
b100110 I
09"
1$
1!
#380
b1110011 ,"
b1110011 -"
b1110011 +"
b110000001000000000000001110011 E
b110000001000000000000001110011 e
b110000001000000000000001110011 <
b110000001000000000000001110011 :"
b110000001000000000000001110011 ="
19"
0$
0!
#385
0g
b0 f
0X
b1101 8"
b1100000000 |
b1110 &"
b1101zz C
b1101 #"
0^
b1110011 y
b11000 }
b110000001000000000000000000000 $"
b1100000010 /"
b1100000000 %"
b1100000000 1"
b1100000010 ."
b1110 ("
b1101 K
b1101 L
05"
b110000001000000000000001110011 2"
b1110 '"
b1110 3"
b100111 I
09"
1$
1!
#390
b1101111 ,"
b1101111 -"
b1101111 +"
b1101111 E
b1101111 e
b1101111 <
b1101111 :"
b1101111 ="
19"
0$
0!
